EESchema Schematic File Version 2
LIBS:power
LIBS:device
LIBS:transistors
LIBS:conn
LIBS:linear
LIBS:regul
LIBS:74xx
LIBS:cmos4000
LIBS:adc-dac
LIBS:memory
LIBS:xilinx
LIBS:microcontrollers
LIBS:dsp
LIBS:microchip
LIBS:analog_switches
LIBS:motorola
LIBS:texas
LIBS:intel
LIBS:audio
LIBS:interface
LIBS:digital-audio
LIBS:philips
LIBS:display
LIBS:cypress
LIBS:siliconi
LIBS:opto
LIBS:atmel
LIBS:contrib
LIBS:valves
EELAYER 25 0
EELAYER END
$Descr A3 16535 11693
encoding utf-8
Sheet 1 14
Title ""
Date "2019-06-06"
Rev ""
Comp ""
Comment1 ""
Comment2 ""
Comment3 ""
Comment4 ""
$EndDescr
$Comp
L PLCC_84 X?
U 1 1 5CF99441
P 7650 5950
F 0 "X?" H 7650 8365 50  0000 C CNN
F 1 "PLCC_84" H 7650 8274 50  0000 C CNN
F 2 "MODULE" H 5250 4050 50  0001 C CNN
F 3 "DOCUMENTATION" H 5250 4050 50  0001 C CNN
	1    7650 5950
	1    0    0    -1  
$EndComp
Text Label 6000 3900 0    60   ~ 0
AE_AINP_LNA
Text Label 6000 4000 0    60   ~ 0
AE_AINN_LNA
Text Label 6000 4100 0    60   ~ 0
AE_VDD
Text Label 6000 4200 0    60   ~ 0
AE_AINP_CH3
Text Label 6000 4300 0    60   ~ 0
AE_AINN_CH3
Text Label 6000 4400 0    60   ~ 0
ABE_VCM
Text Label 6000 4500 0    60   ~ 0
AE_AINP_CH2
Text Label 6000 4600 0    60   ~ 0
AE_AINN_CH2
Text Label 6000 4800 0    60   ~ 0
AE_AINP_CH1
Text Label 6000 4900 0    60   ~ 0
AE_AINN_CH1
Text Label 6000 5000 0    60   ~ 0
AE_AINP_CH0
Text Label 6000 5100 0    60   ~ 0
AE_AINN_CH0
Text Label 6000 5200 0    60   ~ 0
AE_CTL_C_FR<1>
Text Label 6000 5300 0    60   ~ 0
AE_CTL_C_FR<0>
Text Label 6000 5400 0    60   ~ 0
AE_CTL_MR
Text Label 6000 5500 0    60   ~ 0
AE_CTL_MDR
Text Label 6000 5600 0    60   ~ 0
AE_VDD
Text Label 6000 5700 0    60   ~ 0
AE_EXT_IB
Text Label 6000 5800 0    60   ~ 0
AE_MONT_FR
Text Label 6000 5900 0    60   ~ 0
AE_EXT_FR_OR
Text Label 6000 6000 0    60   ~ 0
AE_CTL_FR_S2
Text Label 6000 6100 0    60   ~ 0
AE_CTL_FR_S1
Text Label 6000 6200 0    60   ~ 0
AE_EXT_FR_CK
Text Label 6000 6500 0    60   ~ 0
AE_EXT_FM_OR
Text Label 6000 6600 0    60   ~ 0
AE_MONT_FM
Text Label 6000 6700 0    60   ~ 0
ABE_CTL_FM_S0
Text Label 6000 6800 0    60   ~ 0
ABE_CTL_FM_S1
Text Label 6000 6900 0    60   ~ 0
ABE_CTL_FM_S2
Text Label 6000 7000 0    60   ~ 0
AE_VDD
Text Label 6000 7100 0    60   ~ 0
AE_OUT_CH0
Text Label 6000 7200 0    60   ~ 0
AE_OUT_CH1
Text Label 6000 7300 0    60   ~ 0
AE_OUT_CH2
Text Label 6000 7400 0    60   ~ 0
AE_OUT_CH3
Text Label 6000 7500 0    60   ~ 0
PVDD
Text Label 6000 7600 0    60   ~ 0
AE_ON_LNA
Text Label 6000 7700 0    60   ~ 0
AE_OP_LNA
Text Label 6000 7800 0    60   ~ 0
AE_VDD
Text Label 6000 7900 0    60   ~ 0
ABE_EXT_FM_CH0
Text Label 6000 8000 0    60   ~ 0
ABE_EXT_FM_CH1
Text Label 9300 5300 2    60   ~ 0
BE_OP_CH3
Text Label 9300 5200 2    60   ~ 0
BE_ON_CH3
Text Label 9300 5100 2    60   ~ 0
ADC_AIP
Text Label 9300 5000 2    60   ~ 0
ADC_AIN
Text Label 9300 4900 2    60   ~ 0
BE_EXT_IB
Text Label 9300 4800 2    60   ~ 0
BE_MONT_FM
Text Label 9300 4700 2    60   ~ 0
BEIN
Text Label 9300 4600 2    60   ~ 0
BE_VDD
Text Label 9300 4400 2    60   ~ 0
BE_VDD
Text Label 9300 4300 2    60   ~ 0
ABE_CTL_IB
Text Label 9300 4200 2    60   ~ 0
BE_EXT_FM_OR
Text Label 9300 4100 2    60   ~ 0
ABE_EXT_FM_CK
Text Label 9300 4000 2    60   ~ 0
ABE_EXT_FM_CH3
Text Label 9300 3900 2    60   ~ 0
ABE_EXT_FM_CH2
Text Label 9300 5500 2    60   ~ 0
BE_OP_CH2
Text Label 9300 5400 2    60   ~ 0
BE_ON_CH2
Text Label 9300 5800 2    60   ~ 0
BE_OP_CH1
Text Label 9300 5700 2    60   ~ 0
BE_ON_CH1
Text Label 9300 6000 2    60   ~ 0
BE_OP_CH0
Text Label 9300 5900 2    60   ~ 0
BE_ON_CH0
Text Label 9300 6200 2    60   ~ 0
ADC_VDD
Text Label 9300 6400 2    60   ~ 0
ADC_RST
Text Label 9300 6300 2    60   ~ 0
ADC_CLKX2
Text Label 9300 6600 2    60   ~ 0
ADC_DOUT
Text Label 9300 6500 2    60   ~ 0
ADC_SMPO
Text Label 9300 6800 2    60   ~ 0
ADC_REFP
Text Label 9300 6700 2    60   ~ 0
ADC_REFN
Text Label 9300 7000 2    60   ~ 0
ADC_CTL_ADC_IN
Text Label 9300 6900 2    60   ~ 0
ADC_VDD
Text Label 9300 7200 2    60   ~ 0
BE_SMP_CH2
Text Label 9300 7100 2    60   ~ 0
BE_SMP_CH3
Text Label 9300 7400 2    60   ~ 0
BE_SMP_CH0
Text Label 9300 7300 2    60   ~ 0
BE_SMP_CH1
Text Label 9300 7600 2    60   ~ 0
PVDD
Text Label 9300 7500 2    60   ~ 0
BE_VDD
Text Label 9300 7800 2    60   ~ 0
BE_CTL_LFC
Text Label 9300 7700 2    60   ~ 0
BE_CTL_LFR
Text Label 9300 8000 2    60   ~ 0
BE_ON_RF
Text Label 9300 7900 2    60   ~ 0
BE_OP_RF
NoConn ~ 8400 5600
NoConn ~ 6900 6400
$Sheet
S 1900 1200 500  850 
U 5CF9A02D
F0 "exg_fdm_pow1" 60
F1 "exg_fdm_pow1.sch" 60
F2 "VDD_5p5" B T 2100 1200 60 
F3 "VDD" B B 2100 2050 60 
F4 "GND" B T 2250 1200 60 
$EndSheet
Text Label 2100 2450 1    60   ~ 0
AE_VDD
Text Label 8850 2650 1    60   ~ 0
ADC_REFP
Text Label 9900 2650 1    60   ~ 0
ADC_REFN
Text Label 10950 2650 1    60   ~ 0
ABE_VCM
$Comp
L BANA_PWR U?
U 1 1 5CFB02B6
P 13650 1250
F 0 "U?" H 13650 1050 60  0000 C CNN
F 1 "BANA_PWR" H 13650 1450 60  0000 C CNN
F 2 "" H 13650 1450 60  0001 C CNN
F 3 "" H 13650 1450 60  0001 C CNN
	1    13650 1250
	1    0    0    -1  
$EndComp
Text Label 12600 1250 0    60   ~ 0
VDD_5p5
$Comp
L BANA_PWR U?
U 1 1 5CFB06DF
P 13650 1800
F 0 "U?" H 13650 1600 60  0000 C CNN
F 1 "BANA_PWR" H 13650 2000 60  0000 C CNN
F 2 "" H 13650 2000 60  0001 C CNN
F 3 "" H 13650 2000 60  0001 C CNN
	1    13650 1800
	1    0    0    -1  
$EndComp
$Comp
L GND #PWR?
U 1 1 5CFB0AC6
P 13250 1850
F 0 "#PWR?" H 13250 1600 50  0001 C CNN
F 1 "GND" H 13250 1700 50  0000 C CNN
F 2 "" H 13250 1850 50  0000 C CNN
F 3 "" H 13250 1850 50  0000 C CNN
	1    13250 1850
	1    0    0    -1  
$EndComp
$Comp
L SMA J?
U 1 1 5CFC111C
P 5600 3450
F 0 "J?" H 5400 3250 60  0000 C CNN
F 1 "SMA" H 5800 3250 60  0000 C CNN
F 2 "" H 5600 3450 60  0001 C CNN
F 3 "" H 5600 3450 60  0001 C CNN
	1    5600 3450
	-1   0    0    1   
$EndComp
Text Label 5950 3100 2    60   ~ 0
GND
$Comp
L SMA J?
U 1 1 5CFC402E
P 4800 3450
F 0 "J?" H 4600 3250 60  0000 C CNN
F 1 "SMA" H 5000 3250 60  0000 C CNN
F 2 "" H 4800 3450 60  0001 C CNN
F 3 "" H 4800 3450 60  0001 C CNN
	1    4800 3450
	-1   0    0    1   
$EndComp
Text Label 4900 3100 2    60   ~ 0
GND
$Comp
L SMA J?
U 1 1 5CFC6B89
P 3950 3450
F 0 "J?" H 3750 3250 60  0000 C CNN
F 1 "SMA" H 4150 3250 60  0000 C CNN
F 2 "" H 3950 3450 60  0001 C CNN
F 3 "" H 3950 3450 60  0001 C CNN
	1    3950 3450
	-1   0    0    1   
$EndComp
Text Label 4050 3100 2    60   ~ 0
GND
$Comp
L SMA J?
U 1 1 5CFC6B90
P 3150 3450
F 0 "J?" H 2950 3250 60  0000 C CNN
F 1 "SMA" H 3350 3250 60  0000 C CNN
F 2 "" H 3150 3450 60  0001 C CNN
F 3 "" H 3150 3450 60  0001 C CNN
	1    3150 3450
	-1   0    0    1   
$EndComp
Text Label 3250 3100 2    60   ~ 0
GND
Text Label 6000 4700 0    60   ~ 0
GND
Text Label 6000 6300 0    60   ~ 0
GND
Text Label 9300 4500 2    60   ~ 0
GND
Text Label 9300 6100 2    60   ~ 0
GND
$Comp
L SMA J?
U 1 1 5CFCF778
P 2450 3950
F 0 "J?" H 2250 3750 60  0000 C CNN
F 1 "SMA" H 2650 3750 60  0000 C CNN
F 2 "" H 2450 3950 60  0001 C CNN
F 3 "" H 2450 3950 60  0001 C CNN
	1    2450 3950
	0    1    1    0   
$EndComp
Text Label 2100 3850 3    60   ~ 0
GND
$Comp
L SMA J?
U 1 1 5CFCF77F
P 2450 4750
F 0 "J?" H 2250 4550 60  0000 C CNN
F 1 "SMA" H 2650 4550 60  0000 C CNN
F 2 "" H 2450 4750 60  0001 C CNN
F 3 "" H 2450 4750 60  0001 C CNN
	1    2450 4750
	0    1    1    0   
$EndComp
Text Label 2100 4650 3    60   ~ 0
GND
$Comp
L CONN_02X04 P?
U 1 1 5CFF0F56
P 5400 7250
F 0 "P?" H 5400 7500 50  0000 C CNN
F 1 "CONN_02X04" H 5400 7000 50  0000 C CNN
F 2 "" H 5400 6050 50  0000 C CNN
F 3 "" H 5400 6050 50  0000 C CNN
	1    5400 7250
	1    0    0    -1  
$EndComp
$Comp
L SMA J?
U 1 1 5CFF2B8D
P 4450 7100
F 0 "J?" H 4250 6900 60  0000 C CNN
F 1 "SMA" H 4650 6900 60  0000 C CNN
F 2 "" H 4450 7100 60  0001 C CNN
F 3 "" H 4450 7100 60  0001 C CNN
	1    4450 7100
	0    1    1    0   
$EndComp
Text Label 4100 7000 3    60   ~ 0
GND
$Comp
L TEST_1P W?
U 1 1 5D00013D
P 5600 5800
F 0 "W?" H 5600 6070 50  0000 C CNN
F 1 "TEST_1P" H 5600 6000 50  0000 C CNN
F 2 "" H 5800 5800 50  0000 C CNN
F 3 "" H 5800 5800 50  0000 C CNN
	1    5600 5800
	0    -1   -1   0   
$EndComp
$Comp
L TEST_1P W?
U 1 1 5D002215
P 5600 6600
F 0 "W?" H 5600 6870 50  0000 C CNN
F 1 "TEST_1P" H 5600 6800 50  0000 C CNN
F 2 "" H 5800 6600 50  0000 C CNN
F 3 "" H 5800 6600 50  0000 C CNN
	1    5600 6600
	0    -1   -1   0   
$EndComp
$Comp
L TEST_1P W?
U 1 1 5D006D2B
P 9750 4800
F 0 "W?" H 9750 5070 50  0000 C CNN
F 1 "TEST_1P" H 9750 5000 50  0000 C CNN
F 2 "" H 9950 4800 50  0000 C CNN
F 3 "" H 9950 4800 50  0000 C CNN
	1    9750 4800
	0    1    -1   0   
$EndComp
$Comp
L SMA J?
U 1 1 5D00BC24
P 5850 8500
F 0 "J?" H 5650 8300 60  0000 C CNN
F 1 "SMA" H 6050 8300 60  0000 C CNN
F 2 "" H 5850 8500 60  0001 C CNN
F 3 "" H 5850 8500 60  0001 C CNN
	1    5850 8500
	-1   0    0    -1  
$EndComp
Text Label 6200 8850 2    60   ~ 0
GND
$Comp
L SMA J?
U 1 1 5D00BC2B
P 5050 8500
F 0 "J?" H 4850 8300 60  0000 C CNN
F 1 "SMA" H 5250 8300 60  0000 C CNN
F 2 "" H 5050 8500 60  0001 C CNN
F 3 "" H 5050 8500 60  0001 C CNN
	1    5050 8500
	-1   0    0    -1  
$EndComp
Text Label 5150 8850 2    60   ~ 0
GND
$Comp
L SMA J?
U 1 1 5D01E2DE
P 2450 5550
F 0 "J?" H 2250 5350 60  0000 C CNN
F 1 "SMA" H 2650 5350 60  0000 C CNN
F 2 "" H 2450 5550 60  0001 C CNN
F 3 "" H 2450 5550 60  0001 C CNN
	1    2450 5550
	0    1    1    0   
$EndComp
Text Label 2100 5450 3    60   ~ 0
GND
$Comp
L SMA J?
U 1 1 5D01E2E5
P 2450 6350
F 0 "J?" H 2250 6150 60  0000 C CNN
F 1 "SMA" H 2650 6150 60  0000 C CNN
F 2 "" H 2450 6350 60  0001 C CNN
F 3 "" H 2450 6350 60  0001 C CNN
	1    2450 6350
	0    1    1    0   
$EndComp
Text Label 2100 6250 3    60   ~ 0
GND
$Comp
L SMA J?
U 1 1 5D027FF0
P 10400 3400
F 0 "J?" H 10200 3200 60  0000 C CNN
F 1 "SMA" H 10600 3200 60  0000 C CNN
F 2 "" H 10400 3400 60  0001 C CNN
F 3 "" H 10400 3400 60  0001 C CNN
	1    10400 3400
	-1   0    0    1   
$EndComp
Text Label 10750 3050 2    60   ~ 0
GND
$Comp
L SMA J?
U 1 1 5D027FF7
P 9600 3400
F 0 "J?" H 9400 3200 60  0000 C CNN
F 1 "SMA" H 9800 3200 60  0000 C CNN
F 2 "" H 9600 3400 60  0001 C CNN
F 3 "" H 9600 3400 60  0001 C CNN
	1    9600 3400
	-1   0    0    1   
$EndComp
Text Label 9700 3050 2    60   ~ 0
GND
$Comp
L SMA J?
U 1 1 5D02AE83
P 2450 7150
F 0 "J?" H 2250 6950 60  0000 C CNN
F 1 "SMA" H 2650 6950 60  0000 C CNN
F 2 "" H 2450 7150 60  0001 C CNN
F 3 "" H 2450 7150 60  0001 C CNN
	1    2450 7150
	0    1    1    0   
$EndComp
Text Label 2100 7050 3    60   ~ 0
GND
$Comp
L SMA J?
U 1 1 5D02AE8A
P 2450 7950
F 0 "J?" H 2250 7750 60  0000 C CNN
F 1 "SMA" H 2650 7750 60  0000 C CNN
F 2 "" H 2450 7950 60  0001 C CNN
F 3 "" H 2450 7950 60  0001 C CNN
	1    2450 7950
	0    1    1    0   
$EndComp
Text Label 2100 7850 3    60   ~ 0
GND
$Comp
L SMA J?
U 1 1 5D02EEAB
P 4200 8500
F 0 "J?" H 4000 8300 60  0000 C CNN
F 1 "SMA" H 4400 8300 60  0000 C CNN
F 2 "" H 4200 8500 60  0001 C CNN
F 3 "" H 4200 8500 60  0001 C CNN
	1    4200 8500
	-1   0    0    -1  
$EndComp
Text Label 4550 8850 2    60   ~ 0
GND
$Comp
L SMA J?
U 1 1 5D02EEB2
P 3400 8500
F 0 "J?" H 3200 8300 60  0000 C CNN
F 1 "SMA" H 3600 8300 60  0000 C CNN
F 2 "" H 3400 8500 60  0001 C CNN
F 3 "" H 3400 8500 60  0001 C CNN
	1    3400 8500
	-1   0    0    -1  
$EndComp
Text Label 3500 8850 2    60   ~ 0
GND
Wire Wire Line
	5600 3900 6900 3900
Wire Wire Line
	4800 4000 6900 4000
Wire Wire Line
	6900 4100 6000 4100
Wire Wire Line
	3950 4200 6900 4200
Wire Wire Line
	3150 4300 6900 4300
Wire Wire Line
	6900 4400 6000 4400
Wire Wire Line
	3050 4500 6900 4500
Wire Wire Line
	3050 4600 6900 4600
Wire Wire Line
	3050 4800 6900 4800
Wire Wire Line
	3150 4900 6900 4900
Wire Wire Line
	3250 5000 6900 5000
Wire Wire Line
	3350 5100 6900 5100
Wire Wire Line
	6900 5200 6000 5200
Wire Wire Line
	6900 5300 6000 5300
Wire Wire Line
	6900 5400 6000 5400
Wire Wire Line
	6900 5500 6000 5500
Wire Wire Line
	6900 5600 6000 5600
Wire Wire Line
	4100 5700 6900 5700
Wire Wire Line
	5600 5800 6900 5800
Wire Wire Line
	6900 5900 6000 5900
Wire Wire Line
	6900 6000 6000 6000
Wire Wire Line
	6900 6100 6000 6100
Wire Wire Line
	4750 6200 6900 6200
Wire Wire Line
	6900 6500 6000 6500
Wire Wire Line
	5600 6600 6900 6600
Wire Wire Line
	6900 6700 6000 6700
Wire Wire Line
	6900 6800 6000 6800
Wire Wire Line
	6900 6900 6000 6900
Wire Wire Line
	6900 7000 6000 7000
Wire Wire Line
	5650 7100 6900 7100
Wire Wire Line
	5650 7200 6900 7200
Wire Wire Line
	5650 7300 6900 7300
Wire Wire Line
	5650 7400 6900 7400
Wire Wire Line
	6900 7500 6000 7500
Wire Wire Line
	3400 7600 6900 7600
Wire Wire Line
	4200 7700 6900 7700
Wire Wire Line
	6900 7800 6000 7800
Wire Wire Line
	5050 7900 6900 7900
Wire Wire Line
	5850 8000 6900 8000
Wire Wire Line
	8400 5300 9300 5300
Wire Wire Line
	8400 5200 9300 5200
Wire Wire Line
	8400 5100 10600 5100
Wire Wire Line
	8400 5000 10700 5000
Wire Wire Line
	8400 4900 9300 4900
Wire Wire Line
	8400 4800 9750 4800
Wire Wire Line
	8400 4700 10800 4700
Wire Wire Line
	8400 4600 9300 4600
Wire Wire Line
	8400 4400 9300 4400
Wire Wire Line
	8400 4300 9300 4300
Wire Wire Line
	8400 4200 9300 4200
Wire Wire Line
	8400 4100 10600 4100
Wire Wire Line
	8400 4000 10400 4000
Wire Wire Line
	8400 3900 9600 3900
Wire Wire Line
	8400 5500 9300 5500
Wire Wire Line
	8400 5400 9300 5400
Wire Wire Line
	8400 5800 9300 5800
Wire Wire Line
	8400 5700 9300 5700
Wire Wire Line
	8400 6000 9300 6000
Wire Wire Line
	8400 5900 9300 5900
Wire Wire Line
	8400 6200 9300 6200
Wire Wire Line
	8400 6400 9300 6400
Wire Wire Line
	8400 6600 9300 6600
Wire Wire Line
	8400 6500 9300 6500
Wire Wire Line
	8400 6800 9300 6800
Wire Wire Line
	8400 6700 9300 6700
Wire Wire Line
	8400 7000 9300 7000
Wire Wire Line
	8400 6900 9300 6900
Wire Wire Line
	8400 7200 9300 7200
Wire Wire Line
	8400 7100 9300 7100
Wire Wire Line
	8400 7400 9300 7400
Wire Wire Line
	8400 7300 9300 7300
Wire Wire Line
	8400 7600 9300 7600
Wire Wire Line
	8400 7500 9300 7500
Wire Wire Line
	8400 7800 9300 7800
Wire Wire Line
	8400 7700 9300 7700
Wire Wire Line
	8400 8000 9750 8000
Wire Wire Line
	8400 7900 10550 7900
Wire Wire Line
	2100 2050 2100 2450
Wire Wire Line
	8850 2050 8850 2650
Wire Wire Line
	9900 2050 9900 2650
Wire Wire Line
	10950 2050 10950 2650
Wire Wire Line
	12600 1250 13400 1250
Wire Wire Line
	13400 1800 13250 1800
Wire Wire Line
	13250 1800 13250 1850
Wire Wire Line
	6000 3100 6000 3550
Wire Wire Line
	6000 3100 5250 3100
Wire Wire Line
	5250 3100 5250 3550
Connection ~ 6000 3350
Connection ~ 5250 3350
Wire Wire Line
	5900 3350 6000 3350
Wire Wire Line
	6000 3550 5900 3550
Wire Wire Line
	5250 3550 5300 3550
Wire Wire Line
	5300 3350 5250 3350
Wire Wire Line
	5150 3100 5150 3550
Wire Wire Line
	5150 3100 4450 3100
Wire Wire Line
	4450 3100 4450 3550
Connection ~ 5150 3350
Connection ~ 4450 3350
Wire Wire Line
	5100 3350 5150 3350
Wire Wire Line
	5150 3550 5100 3550
Wire Wire Line
	4450 3550 4500 3550
Wire Wire Line
	4500 3350 4450 3350
Wire Wire Line
	4800 3750 4800 4000
Wire Wire Line
	4300 3100 4300 3550
Wire Wire Line
	4300 3100 3600 3100
Wire Wire Line
	3600 3100 3600 3550
Connection ~ 4300 3350
Connection ~ 3600 3350
Wire Wire Line
	4250 3350 4300 3350
Wire Wire Line
	4300 3550 4250 3550
Wire Wire Line
	3600 3550 3650 3550
Wire Wire Line
	3650 3350 3600 3350
Wire Wire Line
	3500 3100 3500 3550
Wire Wire Line
	3500 3100 2800 3100
Wire Wire Line
	2800 3100 2800 3550
Connection ~ 3500 3350
Connection ~ 2800 3350
Wire Wire Line
	3450 3350 3500 3350
Wire Wire Line
	3500 3550 3450 3550
Wire Wire Line
	2800 3550 2850 3550
Wire Wire Line
	2850 3350 2800 3350
Wire Wire Line
	3950 3750 3950 4200
Wire Wire Line
	3150 3750 3150 4300
Wire Wire Line
	6900 4700 6000 4700
Wire Wire Line
	6900 6300 6000 6300
Wire Wire Line
	8400 4500 9300 4500
Wire Wire Line
	8400 6100 9300 6100
Wire Wire Line
	5600 3750 5600 3900
Wire Wire Line
	2100 3600 2550 3600
Wire Wire Line
	2100 3600 2100 4300
Wire Wire Line
	2100 4300 2550 4300
Connection ~ 2350 3600
Connection ~ 2350 4300
Wire Wire Line
	2350 3650 2350 3600
Wire Wire Line
	2550 3600 2550 3650
Wire Wire Line
	2550 4300 2550 4250
Wire Wire Line
	2350 4250 2350 4300
Wire Wire Line
	2100 4400 2550 4400
Wire Wire Line
	2100 4400 2100 5100
Wire Wire Line
	2100 5100 2550 5100
Connection ~ 2350 4400
Connection ~ 2350 5100
Wire Wire Line
	2350 4450 2350 4400
Wire Wire Line
	2550 4400 2550 4450
Wire Wire Line
	2550 5100 2550 5050
Wire Wire Line
	2350 5050 2350 5100
Wire Wire Line
	2750 3950 3050 3950
Wire Wire Line
	3050 3950 3050 4500
Wire Wire Line
	2750 4750 3050 4750
Wire Wire Line
	3050 4750 3050 4600
Wire Wire Line
	4750 7100 5150 7100
Wire Wire Line
	5000 7100 5000 7400
Wire Wire Line
	5000 7400 5150 7400
Wire Wire Line
	5150 7300 5000 7300
Connection ~ 5000 7300
Wire Wire Line
	5150 7200 5000 7200
Connection ~ 5000 7200
Wire Wire Line
	4100 6750 4550 6750
Wire Wire Line
	4100 6750 4100 7450
Wire Wire Line
	4100 7450 4550 7450
Connection ~ 4350 6750
Connection ~ 4350 7450
Wire Wire Line
	4350 6800 4350 6750
Wire Wire Line
	4550 6750 4550 6800
Wire Wire Line
	4550 7450 4550 7400
Wire Wire Line
	4350 7400 4350 7450
Connection ~ 5000 7100
Wire Wire Line
	6250 8400 6250 8850
Wire Wire Line
	6250 8850 5500 8850
Wire Wire Line
	5500 8850 5500 8400
Connection ~ 6250 8600
Connection ~ 5500 8600
Wire Wire Line
	6150 8600 6250 8600
Wire Wire Line
	6250 8400 6150 8400
Wire Wire Line
	5500 8400 5550 8400
Wire Wire Line
	5550 8600 5500 8600
Wire Wire Line
	5400 8400 5400 8850
Wire Wire Line
	5400 8850 4700 8850
Wire Wire Line
	4700 8850 4700 8400
Connection ~ 5400 8600
Connection ~ 4700 8600
Wire Wire Line
	5350 8600 5400 8600
Wire Wire Line
	5400 8400 5350 8400
Wire Wire Line
	4700 8400 4750 8400
Wire Wire Line
	4750 8600 4700 8600
Wire Wire Line
	5850 8200 5850 8000
Wire Wire Line
	5050 8200 5050 7900
Wire Wire Line
	2100 5200 2550 5200
Wire Wire Line
	2100 5200 2100 5900
Wire Wire Line
	2100 5900 2550 5900
Connection ~ 2350 5200
Connection ~ 2350 5900
Wire Wire Line
	2350 5250 2350 5200
Wire Wire Line
	2550 5200 2550 5250
Wire Wire Line
	2550 5900 2550 5850
Wire Wire Line
	2350 5850 2350 5900
Wire Wire Line
	2100 6000 2550 6000
Wire Wire Line
	2100 6000 2100 6700
Wire Wire Line
	2100 6700 2550 6700
Connection ~ 2350 6000
Connection ~ 2350 6700
Wire Wire Line
	2350 6050 2350 6000
Wire Wire Line
	2550 6000 2550 6050
Wire Wire Line
	2550 6700 2550 6650
Wire Wire Line
	2350 6650 2350 6700
Wire Wire Line
	2750 5550 3050 5550
Wire Wire Line
	3050 5550 3050 4800
Wire Wire Line
	2750 6350 3150 6350
Wire Wire Line
	3150 6350 3150 4900
Wire Wire Line
	10800 3050 10800 3500
Wire Wire Line
	10800 3050 10050 3050
Wire Wire Line
	10050 3050 10050 3500
Connection ~ 10800 3300
Connection ~ 10050 3300
Wire Wire Line
	10700 3300 10800 3300
Wire Wire Line
	10800 3500 10700 3500
Wire Wire Line
	10050 3500 10100 3500
Wire Wire Line
	10100 3300 10050 3300
Wire Wire Line
	9950 3050 9950 3500
Wire Wire Line
	9950 3050 9250 3050
Wire Wire Line
	9250 3050 9250 3500
Connection ~ 9950 3300
Connection ~ 9250 3300
Wire Wire Line
	9900 3300 9950 3300
Wire Wire Line
	9950 3500 9900 3500
Wire Wire Line
	9250 3500 9300 3500
Wire Wire Line
	9300 3300 9250 3300
Wire Wire Line
	9600 3900 9600 3700
Wire Wire Line
	10400 4000 10400 3700
Wire Wire Line
	2100 6800 2550 6800
Wire Wire Line
	2100 6800 2100 7500
Wire Wire Line
	2100 7500 2550 7500
Connection ~ 2350 6800
Connection ~ 2350 7500
Wire Wire Line
	2350 6850 2350 6800
Wire Wire Line
	2550 6800 2550 6850
Wire Wire Line
	2550 7500 2550 7450
Wire Wire Line
	2350 7450 2350 7500
Wire Wire Line
	2100 7600 2550 7600
Wire Wire Line
	2100 7600 2100 8300
Wire Wire Line
	2100 8300 2550 8300
Connection ~ 2350 7600
Connection ~ 2350 8300
Wire Wire Line
	2350 7650 2350 7600
Wire Wire Line
	2550 7600 2550 7650
Wire Wire Line
	2550 8300 2550 8250
Wire Wire Line
	2350 8250 2350 8300
Wire Wire Line
	2750 7150 3250 7150
Wire Wire Line
	3250 7150 3250 5000
Wire Wire Line
	2750 7950 3350 7950
Wire Wire Line
	3350 7950 3350 5100
Wire Wire Line
	4600 8400 4600 8850
Wire Wire Line
	4600 8850 3850 8850
Wire Wire Line
	3850 8850 3850 8400
Connection ~ 4600 8600
Connection ~ 3850 8600
Wire Wire Line
	4500 8600 4600 8600
Wire Wire Line
	4600 8400 4500 8400
Wire Wire Line
	3850 8400 3900 8400
Wire Wire Line
	3900 8600 3850 8600
Wire Wire Line
	3750 8400 3750 8850
Wire Wire Line
	3750 8850 3050 8850
Wire Wire Line
	3050 8850 3050 8400
Connection ~ 3750 8600
Connection ~ 3050 8600
Wire Wire Line
	3700 8600 3750 8600
Wire Wire Line
	3750 8400 3700 8400
Wire Wire Line
	3050 8400 3100 8400
Wire Wire Line
	3100 8600 3050 8600
Wire Wire Line
	4200 8200 4200 7700
Wire Wire Line
	3400 8200 3400 7600
$Sheet
S 13050 3800 1050 400 
U 5D04A74C
F0 "exg_fdm_beout" 60
F1 "exg_fdm_beout.sch" 60
F2 "BE_ON_CH" I L 13050 3950 60 
F3 "VSS" B R 14100 3950 60 
F4 "BE_OP_CH" I L 13050 4050 60 
F5 "VDD" B R 14100 4050 60 
$EndSheet
$Comp
L SMA J?
U 1 1 5D05670B
P 10550 8500
F 0 "J?" H 10350 8300 60  0000 C CNN
F 1 "SMA" H 10750 8300 60  0000 C CNN
F 2 "" H 10550 8500 60  0001 C CNN
F 3 "" H 10550 8500 60  0001 C CNN
	1    10550 8500
	-1   0    0    -1  
$EndComp
Text Label 10900 8850 2    60   ~ 0
GND
$Comp
L SMA J?
U 1 1 5D056712
P 9750 8500
F 0 "J?" H 9550 8300 60  0000 C CNN
F 1 "SMA" H 9950 8300 60  0000 C CNN
F 2 "" H 9750 8500 60  0001 C CNN
F 3 "" H 9750 8500 60  0001 C CNN
	1    9750 8500
	-1   0    0    -1  
$EndComp
Text Label 9850 8850 2    60   ~ 0
GND
Wire Wire Line
	10950 8400 10950 8850
Wire Wire Line
	10950 8850 10200 8850
Wire Wire Line
	10200 8850 10200 8400
Connection ~ 10950 8600
Connection ~ 10200 8600
Wire Wire Line
	10850 8600 10950 8600
Wire Wire Line
	10950 8400 10850 8400
Wire Wire Line
	10200 8400 10250 8400
Wire Wire Line
	10250 8600 10200 8600
Wire Wire Line
	10100 8400 10100 8850
Wire Wire Line
	10100 8850 9400 8850
Wire Wire Line
	9400 8850 9400 8400
Connection ~ 10100 8600
Connection ~ 9400 8600
Wire Wire Line
	10050 8600 10100 8600
Wire Wire Line
	10100 8400 10050 8400
Wire Wire Line
	9400 8400 9450 8400
Wire Wire Line
	9450 8600 9400 8600
Wire Wire Line
	9750 8000 9750 8200
Wire Wire Line
	10550 7900 10550 8200
$Comp
L SMA J?
U 1 1 5D060819
P 11100 4700
F 0 "J?" H 10900 4500 60  0000 C CNN
F 1 "SMA" H 11300 4500 60  0000 C CNN
F 2 "" H 11100 4700 60  0001 C CNN
F 3 "" H 11100 4700 60  0001 C CNN
	1    11100 4700
	0    -1   1    0   
$EndComp
Text Label 11450 4600 3    60   ~ 0
GND
Wire Wire Line
	11000 4350 11450 4350
Wire Wire Line
	11450 4350 11450 5050
Wire Wire Line
	11450 5050 11000 5050
Connection ~ 11200 4350
Connection ~ 11200 5050
Wire Wire Line
	11200 4400 11200 4350
Wire Wire Line
	11000 4350 11000 4400
Wire Wire Line
	11000 5050 11000 5000
Wire Wire Line
	11200 5000 11200 5050
$Comp
L SMA J?
U 1 1 5D06443E
P 4450 6200
F 0 "J?" H 4250 6000 60  0000 C CNN
F 1 "SMA" H 4650 6000 60  0000 C CNN
F 2 "" H 4450 6200 60  0001 C CNN
F 3 "" H 4450 6200 60  0001 C CNN
	1    4450 6200
	0    1    1    0   
$EndComp
Text Label 4100 6100 3    60   ~ 0
GND
Wire Wire Line
	4100 5850 4550 5850
Wire Wire Line
	4100 5850 4100 6550
Wire Wire Line
	4100 6550 4550 6550
Connection ~ 4350 5850
Connection ~ 4350 6550
Wire Wire Line
	4350 5900 4350 5850
Wire Wire Line
	4550 5850 4550 5900
Wire Wire Line
	4550 6550 4550 6500
Wire Wire Line
	4350 6500 4350 6550
$Comp
L SMA J?
U 1 1 5D0656BE
P 11100 3900
F 0 "J?" H 10900 3700 60  0000 C CNN
F 1 "SMA" H 11300 3700 60  0000 C CNN
F 2 "" H 11100 3900 60  0001 C CNN
F 3 "" H 11100 3900 60  0001 C CNN
	1    11100 3900
	0    -1   1    0   
$EndComp
Text Label 11450 3800 3    60   ~ 0
GND
Wire Wire Line
	11000 3550 11450 3550
Wire Wire Line
	11450 3550 11450 4250
Wire Wire Line
	11450 4250 11000 4250
Connection ~ 11200 3550
Connection ~ 11200 4250
Wire Wire Line
	11200 3600 11200 3550
Wire Wire Line
	11000 3550 11000 3600
Wire Wire Line
	11000 4250 11000 4200
Wire Wire Line
	11200 4200 11200 4250
Wire Wire Line
	10800 3900 10600 3900
Wire Wire Line
	10600 3900 10600 4100
$Comp
L SMA J?
U 1 1 5D069B92
P 11100 7250
F 0 "J?" H 10900 7050 60  0000 C CNN
F 1 "SMA" H 11300 7050 60  0000 C CNN
F 2 "" H 11100 7250 60  0001 C CNN
F 3 "" H 11100 7250 60  0001 C CNN
	1    11100 7250
	0    -1   1    0   
$EndComp
Text Label 11450 7150 3    60   ~ 0
GND
Wire Wire Line
	11000 6900 11450 6900
Wire Wire Line
	11450 6900 11450 7600
Wire Wire Line
	11450 7600 11000 7600
Connection ~ 11200 6900
Connection ~ 11200 7600
Wire Wire Line
	11200 6950 11200 6900
Wire Wire Line
	11000 6900 11000 6950
Wire Wire Line
	11000 7600 11000 7550
Wire Wire Line
	11200 7550 11200 7600
$Comp
L TACTILE-SWITCH U?
U 1 1 5D06FAAD
P 13400 7850
F 0 "U?" H 13300 8150 60  0000 C CNN
F 1 "TACTILE-SWITCH" H 13500 7500 60  0000 C CNN
F 2 "" H 13400 7850 60  0001 C CNN
F 3 "" H 13400 7850 60  0001 C CNN
	1    13400 7850
	1    0    0    -1  
$EndComp
Wire Wire Line
	12550 8050 13050 8050
Text Label 12550 8050 0    60   ~ 0
ADC_RST
Wire Wire Line
	13850 8050 14350 8050
Text Label 14350 8050 2    60   ~ 0
ADC_RST
Wire Wire Line
	13050 7650 12550 7650
Text Label 12550 7650 0    60   ~ 0
PCB_VDD
Wire Wire Line
	13850 7650 14350 7650
Text Label 14350 7650 2    60   ~ 0
PCB_VDD
Wire Wire Line
	10350 6300 10350 7250
$Comp
L SMA J?
U 1 1 5D0731A0
P 11100 6300
F 0 "J?" H 10900 6100 60  0000 C CNN
F 1 "SMA" H 11300 6100 60  0000 C CNN
F 2 "" H 11100 6300 60  0001 C CNN
F 3 "" H 11100 6300 60  0001 C CNN
	1    11100 6300
	0    -1   1    0   
$EndComp
Text Label 11450 6200 3    60   ~ 0
GND
Wire Wire Line
	11000 5950 11450 5950
Wire Wire Line
	11450 5950 11450 6650
Wire Wire Line
	11450 6650 11000 6650
Connection ~ 11200 5950
Connection ~ 11200 6650
Wire Wire Line
	11200 6000 11200 5950
Wire Wire Line
	11000 5950 11000 6000
Wire Wire Line
	11000 6650 11000 6600
Wire Wire Line
	11200 6600 11200 6650
$Comp
L SMA J?
U 1 1 5D0731B2
P 11100 5500
F 0 "J?" H 10900 5300 60  0000 C CNN
F 1 "SMA" H 11300 5300 60  0000 C CNN
F 2 "" H 11100 5500 60  0001 C CNN
F 3 "" H 11100 5500 60  0001 C CNN
	1    11100 5500
	0    -1   1    0   
$EndComp
Text Label 11450 5400 3    60   ~ 0
GND
Wire Wire Line
	11000 5150 11450 5150
Wire Wire Line
	11450 5150 11450 5850
Wire Wire Line
	11450 5850 11000 5850
Connection ~ 11200 5150
Connection ~ 11200 5850
Wire Wire Line
	11200 5200 11200 5150
Wire Wire Line
	11000 5150 11000 5200
Wire Wire Line
	11000 5850 11000 5800
Wire Wire Line
	11200 5800 11200 5850
Wire Wire Line
	10350 7250 10800 7250
Wire Wire Line
	10800 5500 10700 5500
Wire Wire Line
	10700 5500 10700 5000
Wire Wire Line
	10600 5100 10600 6300
Wire Wire Line
	10600 6300 10800 6300
$Comp
L R R?
U 1 1 5D080354
P 12900 8350
F 0 "R?" V 12980 8350 50  0000 C CNN
F 1 "200k" V 12900 8350 50  0000 C CNN
F 2 "" V 12830 8350 50  0000 C CNN
F 3 "" H 12900 8350 50  0000 C CNN
	1    12900 8350
	1    0    0    -1  
$EndComp
$Comp
L GND #PWR?
U 1 1 5D0805AF
P 12900 8600
F 0 "#PWR?" H 12900 8350 50  0001 C CNN
F 1 "GND" H 12900 8450 50  0000 C CNN
F 2 "" H 12900 8600 50  0000 C CNN
F 3 "" H 12900 8600 50  0000 C CNN
	1    12900 8600
	1    0    0    -1  
$EndComp
Wire Wire Line
	12900 8600 12900 8500
Wire Wire Line
	12900 8200 12900 8050
Connection ~ 12900 8050
Wire Wire Line
	13050 3950 12400 3950
Text Label 12400 3950 0    60   ~ 0
BE_ON_CH3
Wire Wire Line
	12400 4050 13050 4050
Text Label 12400 4050 0    60   ~ 0
BE_OP_CH3
Wire Wire Line
	14100 3950 14550 3950
Text Label 14550 3950 2    60   ~ 0
GND
Wire Wire Line
	2100 1200 2100 750 
Text Label 2100 750  3    60   ~ 0
VDD_5p5
Wire Wire Line
	2250 1200 2250 750 
Text Label 2250 750  3    60   ~ 0
GND
$Sheet
S 2950 1200 500  850 
U 5D0C71B9
F0 "exg_fdm_pow1" 60
F1 "exg_fdm_pow1.sch" 60
F2 "VDD_5p5" B T 3150 1200 60 
F3 "VDD" B B 3150 2050 60 
F4 "GND" B T 3300 1200 60 
$EndSheet
Text Label 3150 2450 1    60   ~ 0
BE_VDD
Wire Wire Line
	3150 2050 3150 2450
Wire Wire Line
	3150 1200 3150 750 
Text Label 3150 750  3    60   ~ 0
VDD_5p5
Wire Wire Line
	3300 1200 3300 750 
Text Label 3300 750  3    60   ~ 0
GND
$Sheet
S 4000 1200 500  850 
U 5D0C952D
F0 "exg_fdm_pow1" 60
F1 "exg_fdm_pow1.sch" 60
F2 "VDD_5p5" B T 4200 1200 60 
F3 "VDD" B B 4200 2050 60 
F4 "GND" B T 4350 1200 60 
$EndSheet
Text Label 4200 2450 1    60   ~ 0
ADC_VDD
Wire Wire Line
	4200 2050 4200 2450
Wire Wire Line
	4200 1200 4200 750 
Text Label 4200 750  3    60   ~ 0
VDD_5p5
Wire Wire Line
	4350 1200 4350 750 
Text Label 4350 750  3    60   ~ 0
GND
$Sheet
S 5050 1200 500  850 
U 5D0C9538
F0 "exg_fdm_pow1" 60
F1 "exg_fdm_pow1.sch" 60
F2 "VDD_5p5" B T 5250 1200 60 
F3 "VDD" B B 5250 2050 60 
F4 "GND" B T 5400 1200 60 
$EndSheet
Text Label 5250 2450 1    60   ~ 0
PVDD
Wire Wire Line
	5250 2050 5250 2450
Wire Wire Line
	5250 1200 5250 750 
Text Label 5250 750  3    60   ~ 0
VDD_5p5
Wire Wire Line
	5400 1200 5400 750 
Text Label 5400 750  3    60   ~ 0
GND
$Sheet
S 8650 1200 500  850 
U 5D0CD6C9
F0 "exg_fdm_pow1" 60
F1 "exg_fdm_pow1.sch" 60
F2 "VDD_5p5" B T 8850 1200 60 
F3 "VDD" B B 8850 2050 60 
F4 "GND" B T 9000 1200 60 
$EndSheet
Wire Wire Line
	8850 1200 8850 750 
Text Label 8850 750  3    60   ~ 0
VDD_5p5
Wire Wire Line
	9000 1200 9000 750 
Text Label 9000 750  3    60   ~ 0
GND
$Sheet
S 9700 1200 500  850 
U 5D0CD6D4
F0 "exg_fdm_pow1" 60
F1 "exg_fdm_pow1.sch" 60
F2 "VDD_5p5" B T 9900 1200 60 
F3 "VDD" B B 9900 2050 60 
F4 "GND" B T 10050 1200 60 
$EndSheet
Wire Wire Line
	9900 1200 9900 750 
Text Label 9900 750  3    60   ~ 0
VDD_5p5
Wire Wire Line
	10050 1200 10050 750 
Text Label 10050 750  3    60   ~ 0
GND
$Sheet
S 10750 1200 500  850 
U 5D0CD6DF
F0 "exg_fdm_pow1" 60
F1 "exg_fdm_pow1.sch" 60
F2 "VDD_5p5" B T 10950 1200 60 
F3 "VDD" B B 10950 2050 60 
F4 "GND" B T 11100 1200 60 
$EndSheet
Wire Wire Line
	10950 1200 10950 750 
Text Label 10950 750  3    60   ~ 0
VDD_5p5
Wire Wire Line
	11100 1200 11100 750 
Text Label 11100 750  3    60   ~ 0
GND
$Sheet
S 6100 1200 500  850 
U 5D0D3123
F0 "exg_fdm_pow1" 60
F1 "exg_fdm_pow1.sch" 60
F2 "VDD_5p5" B T 6300 1200 60 
F3 "VDD" B B 6300 2050 60 
F4 "GND" B T 6450 1200 60 
$EndSheet
Text Label 6300 2450 1    60   ~ 0
PCB_VDD
Wire Wire Line
	6300 2050 6300 2450
Wire Wire Line
	6300 1200 6300 750 
Text Label 6300 750  3    60   ~ 0
VDD_5p5
Wire Wire Line
	6450 1200 6450 750 
Text Label 6450 750  3    60   ~ 0
GND
Wire Wire Line
	14100 4050 14550 4050
Text Label 14550 4050 2    60   ~ 0
PCB_VDD
$Sheet
S 13050 4550 1050 400 
U 5D0D6986
F0 "exg_fdm_beout" 60
F1 "exg_fdm_beout.sch" 60
F2 "BE_ON_CH" I L 13050 4700 60 
F3 "VSS" B R 14100 4700 60 
F4 "BE_OP_CH" I L 13050 4800 60 
F5 "VDD" B R 14100 4800 60 
$EndSheet
Wire Wire Line
	13050 4700 12400 4700
Text Label 12400 4700 0    60   ~ 0
BE_ON_CH2
Wire Wire Line
	12400 4800 13050 4800
Text Label 12400 4800 0    60   ~ 0
BE_OP_CH2
Wire Wire Line
	14100 4700 14550 4700
Text Label 14550 4700 2    60   ~ 0
GND
Wire Wire Line
	14100 4800 14550 4800
Text Label 14550 4800 2    60   ~ 0
PCB_VDD
$Sheet
S 13050 5300 1050 400 
U 5D0D86FC
F0 "exg_fdm_beout" 60
F1 "exg_fdm_beout.sch" 60
F2 "BE_ON_CH" I L 13050 5450 60 
F3 "VSS" B R 14100 5450 60 
F4 "BE_OP_CH" I L 13050 5550 60 
F5 "VDD" B R 14100 5550 60 
$EndSheet
Wire Wire Line
	13050 5450 12400 5450
Text Label 12400 5450 0    60   ~ 0
BE_ON_CH1
Wire Wire Line
	12400 5550 13050 5550
Text Label 12400 5550 0    60   ~ 0
BE_OP_CH1
Wire Wire Line
	14100 5450 14550 5450
Text Label 14550 5450 2    60   ~ 0
GND
Wire Wire Line
	14100 5550 14550 5550
Text Label 14550 5550 2    60   ~ 0
PCB_VDD
$Sheet
S 13050 6050 1050 400 
U 5D0D870A
F0 "exg_fdm_beout" 60
F1 "exg_fdm_beout.sch" 60
F2 "BE_ON_CH" I L 13050 6200 60 
F3 "VSS" B R 14100 6200 60 
F4 "BE_OP_CH" I L 13050 6300 60 
F5 "VDD" B R 14100 6300 60 
$EndSheet
Wire Wire Line
	13050 6200 12400 6200
Text Label 12400 6200 0    60   ~ 0
BE_ON_CH0
Wire Wire Line
	12400 6300 13050 6300
Text Label 12400 6300 0    60   ~ 0
BE_OP_CH0
Wire Wire Line
	14100 6200 14550 6200
Text Label 14550 6200 2    60   ~ 0
GND
Wire Wire Line
	14100 6300 14550 6300
Text Label 14550 6300 2    60   ~ 0
PCB_VDD
Wire Wire Line
	8400 6300 10350 6300
$Sheet
S 5550 9550 4100 650 
U 5D108834
F0 "fpga" 60
F1 "fpga.sch" 60
$EndSheet
$Comp
L SMA J?
U 1 1 5D135FA3
P 3800 5700
F 0 "J?" H 3600 5500 60  0000 C CNN
F 1 "SMA" H 4000 5500 60  0000 C CNN
F 2 "" H 3800 5700 60  0001 C CNN
F 3 "" H 3800 5700 60  0001 C CNN
	1    3800 5700
	0    1    1    0   
$EndComp
Text Label 3450 5600 3    60   ~ 0
GND
Wire Wire Line
	3450 5350 3900 5350
Wire Wire Line
	3450 5350 3450 6050
Wire Wire Line
	3450 6050 3900 6050
Connection ~ 3700 5350
Connection ~ 3700 6050
Wire Wire Line
	3700 5400 3700 5350
Wire Wire Line
	3900 5350 3900 5400
Wire Wire Line
	3900 6050 3900 6000
Wire Wire Line
	3700 6000 3700 6050
$EndSCHEMATC
