EESchema Schematic File Version 2
LIBS:power
LIBS:device
LIBS:transistors
LIBS:conn
LIBS:linear
LIBS:regul
LIBS:74xx
LIBS:cmos4000
LIBS:adc-dac
LIBS:memory
LIBS:xilinx
LIBS:microcontrollers
LIBS:dsp
LIBS:microchip
LIBS:analog_switches
LIBS:motorola
LIBS:texas
LIBS:intel
LIBS:audio
LIBS:interface
LIBS:digital-audio
LIBS:philips
LIBS:display
LIBS:cypress
LIBS:siliconi
LIBS:opto
LIBS:atmel
LIBS:contrib
LIBS:valves
LIBS:OSU_SIM
LIBS:TJ_HDR2_CYTO-cache
EELAYER 25 0
EELAYER END
$Descr A4 11693 8268
encoding utf-8
Sheet 4 5
Title ""
Date ""
Rev ""
Comp ""
Comment1 ""
Comment2 ""
Comment3 ""
Comment4 ""
$EndDescr
$Comp
L LT3042 U1
U 1 1 5D0A08E7
P 5710 3750
AR Path="/5D0A0830/5D0A08E7" Ref="U1"  Part="1" 
AR Path="/5D0A60AA/5D0A08E7" Ref="U2"  Part="1" 
AR Path="/5D0A9F2D/5D0A08E7" Ref="U3"  Part="1" 
AR Path="/5D0ABD21/5D0A08E7" Ref="U4"  Part="1" 
F 0 "U4" H 5710 4100 60  0000 C CNN
F 1 "LT3042" H 5710 3500 60  0000 C CNN
F 2 "Housings_SSOP:MSOP-10-1EP_3x3mm_Pitch0.5mm" H 5410 4050 60  0001 C CNN
F 3 "https://www.analog.com/media/en/technical-documentation/data-sheets/3042fb.pdf" H 5410 4050 60  0001 C CNN
F 4 "ADI" H 5710 3750 60  0001 C CNN "MFG"
F 5 "LT3042EMSE#TRPBF" H 5710 3750 60  0001 C CNN "MFG_PN"
F 6 "LT3042EMSE#TRPBFCT-ND" H 5710 3750 60  0001 C CNN "DK_PN"
	1    5710 3750
	1    0    0    -1  
$EndComp
$Comp
L R R3
U 1 1 5D0A094A
P 6840 4440
AR Path="/5D0A0830/5D0A094A" Ref="R3"  Part="1" 
AR Path="/5D0A60AA/5D0A094A" Ref="R5"  Part="1" 
AR Path="/5D0A9F2D/5D0A094A" Ref="R7"  Part="1" 
AR Path="/5D0ABD21/5D0A094A" Ref="R9"  Part="1" 
F 0 "R9" V 6920 4440 50  0000 C CNN
F 1 "10k" V 6840 4440 50  0000 C CNN
F 2 "Resistors_SMD:R_0805_HandSoldering" V 6770 4440 50  0001 C CNN
F 3 "" H 6840 4440 50  0000 C CNN
	1    6840 4440
	1    0    0    -1  
$EndComp
$Comp
L POT RV1
U 1 1 5D0A0A05
P 6840 4050
AR Path="/5D0A0830/5D0A0A05" Ref="RV1"  Part="1" 
AR Path="/5D0A60AA/5D0A0A05" Ref="RV2"  Part="1" 
AR Path="/5D0A9F2D/5D0A0A05" Ref="RV3"  Part="1" 
AR Path="/5D0ABD21/5D0A0A05" Ref="RV4"  Part="1" 
F 0 "RV4" V 6665 4050 50  0000 C CNN
F 1 "POT" V 6740 4050 50  0000 C CNN
F 2 "Potentiometers:Potentiometer_Trimmer_Bourns_3296W" H 6840 4050 50  0001 C CNN
F 3 "https://www.bourns.com/docs/Product-Datasheets/3296.pdf" H 6840 4050 50  0001 C CNN
F 4 "Bourns Inc." V 6840 4050 60  0001 C CNN "MFG"
F 5 "3296W-1-503RLF" V 6840 4050 60  0001 C CNN "MFG_PN"
F 6 "3296W-1-503RLFCT-ND" V 6840 4050 60  0001 C CNN "DK_PN"
	1    6840 4050
	1    0    0    -1  
$EndComp
$Comp
L C C14
U 1 1 5D0A0AA7
P 4800 3700
AR Path="/5D0A0830/5D0A0AA7" Ref="C14"  Part="1" 
AR Path="/5D0A60AA/5D0A0AA7" Ref="C21"  Part="1" 
AR Path="/5D0A9F2D/5D0A0AA7" Ref="C28"  Part="1" 
AR Path="/5D0ABD21/5D0A0AA7" Ref="C35"  Part="1" 
F 0 "C35" H 4825 3800 50  0000 L CNN
F 1 "0.1u" H 4825 3600 50  0000 L CNN
F 2 "Capacitors_SMD:C_0805_HandSoldering" H 4838 3550 50  0001 C CNN
F 3 "http://www.yageo.com/documents/recent/UPY-GPHC_X7R_6.3V-to-50V_18.pdf" H 4800 3700 50  0001 C CNN
F 4 "Yageo" H 4800 3700 60  0001 C CNN "MFG"
F 5 "CC0805KRX7R7BB104" H 4800 3700 60  0001 C CNN "MFG_PN"
F 6 "311-1142-1-ND" H 4800 3700 60  0001 C CNN "DK_PN"
	1    4800 3700
	1    0    0    -1  
$EndComp
Wire Wire Line
	4430 3550 4430 3500
Wire Wire Line
	4360 3500 5210 3500
Wire Wire Line
	4800 3500 4800 3550
Connection ~ 4800 3500
Wire Wire Line
	5210 3700 5100 3700
Wire Wire Line
	5100 3700 5100 3500
Connection ~ 5100 3500
Wire Wire Line
	5210 3600 5100 3600
Connection ~ 5100 3600
Wire Wire Line
	4430 3900 5210 3900
Wire Wire Line
	4800 3900 4800 3850
Wire Wire Line
	4430 3850 4430 3900
Connection ~ 4800 3900
Text HLabel 4360 3500 0    60   Input ~ 0
VIN
Connection ~ 4430 3500
Text Label 4540 3900 0    60   ~ 0
GND
NoConn ~ 5210 3800
Wire Wire Line
	6840 4290 6840 4200
Wire Wire Line
	6840 4250 7040 4250
Wire Wire Line
	7040 4250 7040 4050
Wire Wire Line
	7040 4050 6990 4050
Connection ~ 6840 4250
Wire Wire Line
	6210 3800 6840 3800
Wire Wire Line
	6210 3900 6370 3900
Text Label 6370 3900 2    60   ~ 0
VIN
Wire Wire Line
	6840 3800 6840 3900
$Comp
L C C15
U 1 1 5D0A131F
P 6510 4250
AR Path="/5D0A0830/5D0A131F" Ref="C15"  Part="1" 
AR Path="/5D0A60AA/5D0A131F" Ref="C22"  Part="1" 
AR Path="/5D0A9F2D/5D0A131F" Ref="C29"  Part="1" 
AR Path="/5D0ABD21/5D0A131F" Ref="C36"  Part="1" 
F 0 "C36" H 6535 4350 50  0000 L CNN
F 1 "0.47u" H 6535 4150 50  0000 L CNN
F 2 "Capacitors_SMD:C_0805_HandSoldering" H 6548 4100 50  0001 C CNN
F 3 "http://www.yageo.com/documents/recent/UPY-GPHC_X7R_6.3V-to-50V_18.pdf" H 6510 4250 50  0001 C CNN
F 4 "Yageo" H 6510 4250 60  0001 C CNN "MFG"
F 5 "CC0805KKX7R8BB474" H 6510 4250 60  0001 C CNN "MFG_PN"
F 6 "311-1364-1-ND" H 6510 4250 60  0001 C CNN "DK_PN"
	1    6510 4250
	1    0    0    -1  
$EndComp
Wire Wire Line
	6510 4100 6510 3800
Connection ~ 6510 3800
Wire Wire Line
	6510 4400 6510 4700
Wire Wire Line
	6300 4700 8960 4700
Wire Wire Line
	6840 4700 6840 4590
Text HLabel 6300 4700 0    60   BiDi ~ 0
GND
Connection ~ 6510 4700
Wire Wire Line
	6210 3700 6510 3700
Text Label 6510 3700 2    60   ~ 0
GND
Wire Wire Line
	6210 3600 6340 3600
Wire Wire Line
	6340 3600 6340 3500
Wire Wire Line
	6210 3500 7920 3500
$Comp
L R R4
U 1 1 5D0A153C
P 7350 4240
AR Path="/5D0A0830/5D0A153C" Ref="R4"  Part="1" 
AR Path="/5D0A60AA/5D0A153C" Ref="R6"  Part="1" 
AR Path="/5D0A9F2D/5D0A153C" Ref="R8"  Part="1" 
AR Path="/5D0ABD21/5D0A153C" Ref="R10"  Part="1" 
F 0 "R10" V 7430 4240 50  0000 C CNN
F 1 "10k" V 7350 4240 50  0000 C CNN
F 2 "Resistors_SMD:R_0805_HandSoldering" V 7280 4240 50  0001 C CNN
F 3 "" H 7350 4240 50  0000 C CNN
	1    7350 4240
	1    0    0    -1  
$EndComp
Wire Wire Line
	7350 3500 7350 4090
Connection ~ 6340 3500
Wire Wire Line
	7350 4700 7350 4390
Connection ~ 6840 4700
$Comp
L C C16
U 1 1 5D0A1702
P 7710 4090
AR Path="/5D0A0830/5D0A1702" Ref="C16"  Part="1" 
AR Path="/5D0A60AA/5D0A1702" Ref="C23"  Part="1" 
AR Path="/5D0A9F2D/5D0A1702" Ref="C30"  Part="1" 
AR Path="/5D0ABD21/5D0A1702" Ref="C37"  Part="1" 
F 0 "C37" H 7735 4190 50  0000 L CNN
F 1 "4.7u" H 7735 3990 50  0000 L CNN
F 2 "Capacitors_SMD:C_1206_HandSoldering" H 7748 3940 50  0001 C CNN
F 3 "https://product.tdk.com/info/en/documents/chara_sheet/C3216X7R1E475K160AC.pdf" H 7710 4090 50  0001 C CNN
F 4 "TDK" H 7710 4090 60  0001 C CNN "MFG"
F 5 "C3216X7R1E475K160AC" H 7710 4090 60  0001 C CNN "MFG_PN"
F 6 "445-1606-2-ND" H 7710 4090 60  0001 C CNN "DK_PN"
	1    7710 4090
	1    0    0    -1  
$EndComp
Wire Wire Line
	7710 3500 7710 3940
Connection ~ 7350 3500
Wire Wire Line
	7710 4700 7710 4240
Connection ~ 7350 4700
$Comp
L CONN_01X02 P7
U 1 1 5D0A1992
P 7970 3300
AR Path="/5D0A0830/5D0A1992" Ref="P7"  Part="1" 
AR Path="/5D0A60AA/5D0A1992" Ref="P8"  Part="1" 
AR Path="/5D0A9F2D/5D0A1992" Ref="P9"  Part="1" 
AR Path="/5D0ABD21/5D0A1992" Ref="P10"  Part="1" 
F 0 "P10" H 7970 3450 50  0000 C CNN
F 1 "CONN_01X02" V 8070 3300 50  0000 C CNN
F 2 "Pin_Headers:Pin_Header_Straight_1x02_Pitch2.54mm" H 7970 3300 50  0001 C CNN
F 3 "https://cdn.harwin.com/pdfs/M20-999.pdf" H 7970 3300 50  0001 C CNN
F 4 "Harwin" H 7970 3300 60  0001 C CNN "MFG"
F 5 "M20-9991646" H 7970 3300 60  0001 C CNN "MFG_PN"
F 6 "952-3305-ND" H 7970 3300 60  0001 C CNN "DK_PN"
	1    7970 3300
	0    -1   -1   0   
$EndComp
Connection ~ 7710 3500
Wire Wire Line
	8020 3500 9160 3500
$Comp
L C C17
U 1 1 5D0A1C46
P 8350 4080
AR Path="/5D0A0830/5D0A1C46" Ref="C17"  Part="1" 
AR Path="/5D0A60AA/5D0A1C46" Ref="C24"  Part="1" 
AR Path="/5D0A9F2D/5D0A1C46" Ref="C31"  Part="1" 
AR Path="/5D0ABD21/5D0A1C46" Ref="C38"  Part="1" 
F 0 "C38" H 8375 4180 50  0000 L CNN
F 1 "1n" H 8375 3980 50  0000 L CNN
F 2 "Capacitors_SMD:C_0805_HandSoldering" H 8388 3930 50  0001 C CNN
F 3 "http://www.yageo.com/documents/recent/UPY-GPHC_X7R_6.3V-to-50V_18.pdf" H 8350 4080 50  0001 C CNN
F 4 "Yageo" H 8350 4080 60  0001 C CNN "MFG"
F 5 "CC0805JRX7R9BB102" H 8350 4080 60  0001 C CNN "MFG_PN"
F 6 "311-4270-2-ND" H 8350 4080 60  0001 C CNN "DK_PN"
	1    8350 4080
	1    0    0    -1  
$EndComp
Wire Wire Line
	8350 3500 8350 3930
Wire Wire Line
	8350 4700 8350 4230
Connection ~ 7710 4700
Connection ~ 8350 3500
Wire Wire Line
	8650 4700 8650 4230
Connection ~ 8350 4700
Wire Wire Line
	8650 3500 8650 3930
Wire Wire Line
	8960 3500 8960 3930
Connection ~ 8650 3500
Wire Wire Line
	8960 4700 8960 4230
Connection ~ 8650 4700
Connection ~ 8960 3500
Text HLabel 9160 3500 2    60   Output ~ 0
VOUT
$Comp
L C C13
U 1 1 5D0DD057
P 4430 3700
AR Path="/5D0A0830/5D0DD057" Ref="C13"  Part="1" 
AR Path="/5D0A60AA/5D0DD057" Ref="C20"  Part="1" 
AR Path="/5D0A9F2D/5D0DD057" Ref="C27"  Part="1" 
AR Path="/5D0ABD21/5D0DD057" Ref="C34"  Part="1" 
F 0 "C34" H 4455 3800 50  0000 L CNN
F 1 "4.7u" H 4455 3600 50  0000 L CNN
F 2 "Capacitors_SMD:C_1206_HandSoldering" H 4468 3550 50  0001 C CNN
F 3 "https://product.tdk.com/info/en/documents/chara_sheet/C3216X7R1E475K160AC.pdf" H 4430 3700 50  0001 C CNN
F 4 "TDK" H 4430 3700 60  0001 C CNN "MFG"
F 5 "C3216X7R1E475K160AC" H 4430 3700 60  0001 C CNN "MFG_PN"
F 6 "445-1606-2-ND" H 4430 3700 60  0001 C CNN "DK_PN"
	1    4430 3700
	1    0    0    -1  
$EndComp
$Comp
L C C19
U 1 1 5D0DD102
P 8960 4080
AR Path="/5D0A0830/5D0DD102" Ref="C19"  Part="1" 
AR Path="/5D0A60AA/5D0DD102" Ref="C26"  Part="1" 
AR Path="/5D0A9F2D/5D0DD102" Ref="C33"  Part="1" 
AR Path="/5D0ABD21/5D0DD102" Ref="C40"  Part="1" 
F 0 "C40" H 8985 4180 50  0000 L CNN
F 1 "4.7u" H 8985 3980 50  0000 L CNN
F 2 "Capacitors_SMD:C_1206_HandSoldering" H 8998 3930 50  0001 C CNN
F 3 "https://product.tdk.com/info/en/documents/chara_sheet/C3216X7R1E475K160AC.pdf" H 8960 4080 50  0001 C CNN
F 4 "TDK" H 8960 4080 60  0001 C CNN "MFG"
F 5 "C3216X7R1E475K160AC" H 8960 4080 60  0001 C CNN "MFG_PN"
F 6 "445-1606-2-ND" H 8960 4080 60  0001 C CNN "DK_PN"
	1    8960 4080
	1    0    0    -1  
$EndComp
$Comp
L C C18
U 1 1 5D0E45F2
P 8650 4080
AR Path="/5D0A0830/5D0E45F2" Ref="C18"  Part="1" 
AR Path="/5D0A60AA/5D0E45F2" Ref="C25"  Part="1" 
AR Path="/5D0A9F2D/5D0E45F2" Ref="C32"  Part="1" 
AR Path="/5D0ABD21/5D0E45F2" Ref="C39"  Part="1" 
F 0 "C39" H 8675 4180 50  0000 L CNN
F 1 "0.1u" H 8675 3980 50  0000 L CNN
F 2 "Capacitors_SMD:C_0805_HandSoldering" H 8688 3930 50  0001 C CNN
F 3 "http://www.yageo.com/documents/recent/UPY-GPHC_X7R_6.3V-to-50V_18.pdf" H 8650 4080 50  0001 C CNN
F 4 "Yageo" H 8650 4080 60  0001 C CNN "MFG"
F 5 "CC0805KRX7R7BB104" H 8650 4080 60  0001 C CNN "MFG_PN"
F 6 "311-1142-1-ND" H 8650 4080 60  0001 C CNN "DK_PN"
	1    8650 4080
	1    0    0    -1  
$EndComp
Text Label 6960 3500 0    60   ~ 0
LDO_OUT
$EndSCHEMATC
