EESchema Schematic File Version 2
LIBS:power
LIBS:device
LIBS:transistors
LIBS:conn
LIBS:linear
LIBS:regul
LIBS:74xx
LIBS:cmos4000
LIBS:adc-dac
LIBS:memory
LIBS:xilinx
LIBS:microcontrollers
LIBS:dsp
LIBS:microchip
LIBS:analog_switches
LIBS:motorola
LIBS:texas
LIBS:intel
LIBS:audio
LIBS:interface
LIBS:digital-audio
LIBS:philips
LIBS:display
LIBS:cypress
LIBS:siliconi
LIBS:opto
LIBS:atmel
LIBS:contrib
LIBS:valves
LIBS:OSU_SIM
LIBS:TJ_HDR2_CYTO-cache
EELAYER 25 0
EELAYER END
$Descr B 17000 11000
encoding utf-8
Sheet 1 5
Title ""
Date "2017-09-21"
Rev ""
Comp ""
Comment1 ""
Comment2 ""
Comment3 ""
Comment4 ""
$EndDescr
Text Label 11130 5450 0    60   ~ 0
VDD
Text Label 11130 5550 0    60   ~ 0
GND
Text Label 11040 5650 0    60   ~ 0
CATHODE_MON
Text Label 11130 5750 0    60   ~ 0
VREF
Text Label 5160 1160 2    60   ~ 0
VDD
Text Label 7890 1150 2    60   ~ 0
VREF
Text Label 2150 4760 0    60   ~ 0
SYS_RST
Text Label 2150 4860 0    60   ~ 0
PAD_COUNTER_EN
Text Label 2150 4960 0    60   ~ 0
PAD_DATA_HOLD
Text Label 2150 5060 0    60   ~ 0
PAD_HSMODE
Text Label 1980 860  3    60   ~ 0
VDC
Text Label 3830 1160 2    60   ~ 0
VCC
Text Label 2530 3860 0    60   ~ 0
VDC
$Comp
L GND #PWR01
U 1 1 59D09FDB
P 5580 4210
F 0 "#PWR01" H 5580 3960 50  0001 C CNN
F 1 "GND" H 5580 4060 50  0000 C CNN
F 2 "" H 5580 4210 50  0000 C CNN
F 3 "" H 5580 4210 50  0000 C CNN
	1    5580 4210
	1    0    0    -1  
$EndComp
NoConn ~ 8080 7560
NoConn ~ 8080 7460
NoConn ~ 8080 7360
NoConn ~ 8080 7260
NoConn ~ 8080 7160
NoConn ~ 8080 7060
NoConn ~ 8080 6960
NoConn ~ 8080 6860
NoConn ~ 8080 6760
NoConn ~ 8080 6660
NoConn ~ 8080 6460
NoConn ~ 8080 6360
NoConn ~ 8080 6260
NoConn ~ 8080 4360
NoConn ~ 8080 4260
NoConn ~ 8080 4160
NoConn ~ 8080 4060
NoConn ~ 8080 3960
NoConn ~ 8080 3860
NoConn ~ 6180 3960
NoConn ~ 6180 4060
NoConn ~ 6180 4160
NoConn ~ 6180 4260
NoConn ~ 6180 4360
NoConn ~ 6180 7760
NoConn ~ 6180 7660
NoConn ~ 6180 7560
NoConn ~ 6180 7460
NoConn ~ 6180 7360
NoConn ~ 6180 7260
NoConn ~ 6180 7160
NoConn ~ 6180 7060
NoConn ~ 6180 6960
NoConn ~ 6180 6860
NoConn ~ 6180 6760
NoConn ~ 6180 6660
NoConn ~ 6180 6460
NoConn ~ 6180 6360
NoConn ~ 6180 5460
NoConn ~ 4780 7560
NoConn ~ 4780 4360
NoConn ~ 4780 4260
$Comp
L OPAL_KELLY_REAL J3
U 1 1 59C4571D
P 3830 5810
F 0 "J3" H 3830 5710 50  0000 C CNN
F 1 "OPAL_KELLY_REAL" H 3830 5910 50  0000 C CNN
F 2 "OSU_SIM:OPAL_KELLY" H 3830 5810 50  0001 C CNN
F 3 "DOCUMENTATION" H 3830 5810 50  0001 C CNN
	1    3830 5810
	1    0    0    -1  
$EndComp
NoConn ~ 4780 4160
NoConn ~ 4780 4060
NoConn ~ 4780 3960
NoConn ~ 2880 5460
NoConn ~ 2880 4460
NoConn ~ 2880 4360
NoConn ~ 2880 4260
NoConn ~ 2880 7560
NoConn ~ 2880 7660
NoConn ~ 2880 7760
Text Label 6650 9580 1    60   ~ 0
CLK
Text Label 7130 9570 1    60   ~ 0
SER_CLK
$Comp
L GND #PWR02
U 1 1 59D200BB
P 10410 4760
F 0 "#PWR02" H 10410 4510 50  0001 C CNN
F 1 "GND" H 10410 4610 50  0000 C CNN
F 2 "" H 10410 4760 50  0000 C CNN
F 3 "" H 10410 4760 50  0000 C CNN
	1    10410 4760
	1    0    0    -1  
$EndComp
$Comp
L SMA VDD1
U 1 1 59D47306
P 4610 1560
F 0 "VDD1" H 4410 1360 60  0000 C CNN
F 1 "SMA" H 4810 1360 60  0000 C CNN
F 2 "OSU_SIM:SMA_TE" H 4610 1560 60  0001 C CNN
F 3 "http://www.te.com/commerce/DocumentDelivery/DDEController?Action=srchrtrv&DocNm=1814832&DocType=Customer+Drawing&DocLang=English" H 4610 1560 60  0001 C CNN
F 4 "TE Connectivity AMP Connectors" H 4610 1560 60  0001 C CNN "MFG"
F 5 "5-1814832-1" H 4610 1560 60  0001 C CNN "MFG_PN"
F 6 "A97594-ND" H 4610 1560 60  0001 C CNN "DK_PN"
	1    4610 1560
	1    0    0    -1  
$EndComp
$Comp
L SMA VREF1
U 1 1 59D4755F
P 7340 1550
F 0 "VREF1" H 7140 1350 60  0000 C CNN
F 1 "SMA" H 7540 1350 60  0000 C CNN
F 2 "OSU_SIM:SMA_TE" H 7340 1550 60  0001 C CNN
F 3 "http://www.te.com/commerce/DocumentDelivery/DDEController?Action=srchrtrv&DocNm=1814832&DocType=Customer+Drawing&DocLang=English" H 7340 1550 60  0001 C CNN
F 4 "TE Connectivity AMP Connectors" H 7340 1550 60  0001 C CNN "MFG"
F 5 "5-1814832-1" H 7340 1550 60  0001 C CNN "MFG_PN"
F 6 "A97594-ND" H 7340 1550 60  0001 C CNN "DK_PN"
	1    7340 1550
	1    0    0    -1  
$EndComp
$Comp
L SMA VDC1
U 1 1 59D47A1B
P 1980 1560
F 0 "VDC1" H 1780 1360 60  0000 C CNN
F 1 "SMA" H 2180 1360 60  0000 C CNN
F 2 "OSU_SIM:SMA_TE" H 1980 1560 60  0001 C CNN
F 3 "http://www.te.com/commerce/DocumentDelivery/DDEController?Action=srchrtrv&DocNm=1814832&DocType=Customer+Drawing&DocLang=English" H 1980 1560 60  0001 C CNN
F 4 "TE Connectivity AMP Connectors" H 1980 1560 60  0001 C CNN "MFG"
F 5 "5-1814832-1" H 1980 1560 60  0001 C CNN "MFG_PN"
F 6 "A97594-ND" H 1980 1560 60  0001 C CNN "DK_PN"
	1    1980 1560
	1    0    0    -1  
$EndComp
$Comp
L SMA VCC1
U 1 1 59D47B48
P 3280 1560
F 0 "VCC1" H 3080 1360 60  0000 C CNN
F 1 "SMA" H 3480 1360 60  0000 C CNN
F 2 "OSU_SIM:SMA_TE" H 3280 1560 60  0001 C CNN
F 3 "http://www.te.com/commerce/DocumentDelivery/DDEController?Action=srchrtrv&DocNm=1814832&DocType=Customer+Drawing&DocLang=English" H 3280 1560 60  0001 C CNN
F 4 "TE Connectivity AMP Connectors" H 3280 1560 60  0001 C CNN "MFG"
F 5 "5-1814832-1" H 3280 1560 60  0001 C CNN "MFG_PN"
F 6 "A97594-ND" H 3280 1560 60  0001 C CNN "DK_PN"
	1    3280 1560
	1    0    0    -1  
$EndComp
$Comp
L TEST TP_CLK1
U 1 1 59D5259A
P 6650 9190
F 0 "TP_CLK1" H 6650 9490 50  0000 C BNN
F 1 "TEST" H 6650 9440 50  0000 C CNN
F 2 "OSU_SIM:Keystone_5019" H 6650 9190 50  0001 C CNN
F 3 "" H 6650 9190 50  0001 C CNN
	1    6650 9190
	1    0    0    -1  
$EndComp
$Comp
L TEST TP_SER_CLK1
U 1 1 59D526AC
P 7130 9180
F 0 "TP_SER_CLK1" H 7130 9480 50  0000 C BNN
F 1 "TEST" H 7130 9430 50  0000 C CNN
F 2 "OSU_SIM:Keystone_5019" H 7130 9180 50  0001 C CNN
F 3 "" H 7130 9180 50  0001 C CNN
	1    7130 9180
	1    0    0    -1  
$EndComp
NoConn ~ 2880 4660
NoConn ~ 2880 4560
NoConn ~ 6180 4860
NoConn ~ 8080 4860
$Comp
L Ferrite_Bead_Small L2
U 1 1 59D8B0EC
P 5580 4060
F 0 "L2" H 5655 4110 50  0000 L CNN
F 1 "Ferrite_Bead_Small" H 5655 4010 50  0001 L CNN
F 2 "Capacitors_SMD:C_0805_HandSoldering" V 5510 4060 50  0001 C CNN
F 3 "http://katalog.we-online.de/pbs/datasheet/742792093.pdf" H 5580 4060 50  0001 C CNN
F 4 "Wurth Electronics Inc" H 5580 4060 60  0001 C CNN "MFG"
F 5 "742792093" H 5580 4060 60  0001 C CNN "MFG_PN"
F 6 "732-1609-1-ND" H 5580 4060 60  0001 C CNN "DK_PN"
	1    5580 4060
	1    0    0    -1  
$EndComp
$Comp
L R R1
U 1 1 59D8DB1A
P 5230 4060
F 0 "R1" V 5310 4060 50  0000 C CNN
F 1 "0" V 5230 4060 50  0000 C CNN
F 2 "Resistors_SMD:R_0805_HandSoldering" V 5160 4060 50  0001 C CNN
F 3 "" H 5230 4060 50  0000 C CNN
F 4 "Yageo" V 5230 4060 60  0001 C CNN "MFG"
F 5 "RC0805JR-070RL" V 5230 4060 60  0001 C CNN "MFG_PN"
F 6 "311-0.0ARCT-ND" V 5230 4060 60  0001 C CNN "DK_PN"
	1    5230 4060
	1    0    0    -1  
$EndComp
$Comp
L GND #PWR03
U 1 1 59D8DFB5
P 5230 4210
F 0 "#PWR03" H 5230 3960 50  0001 C CNN
F 1 "GND" H 5230 4060 50  0000 C CNN
F 2 "" H 5230 4210 50  0000 C CNN
F 3 "" H 5230 4210 50  0000 C CNN
	1    5230 4210
	1    0    0    -1  
$EndComp
Text Label 5380 3860 0    60   ~ 0
DGND
Text Label 4880 7660 0    60   ~ 0
DGND
Text Label 2380 6210 1    60   ~ 0
DGND
$Comp
L GND #PWR04
U 1 1 59DAB92A
P 5370 8160
F 0 "#PWR04" H 5370 7910 50  0001 C CNN
F 1 "GND" H 5370 8010 50  0000 C CNN
F 2 "" H 5370 8160 50  0000 C CNN
F 3 "" H 5370 8160 50  0000 C CNN
	1    5370 8160
	1    0    0    -1  
$EndComp
$Comp
L Ferrite_Bead_Small L1
U 1 1 59DAB933
P 5220 7910
F 0 "L1" H 5295 7960 50  0000 L CNN
F 1 "Ferrite_Bead_Small" H 5295 7860 50  0001 L CNN
F 2 "Capacitors_SMD:C_0805_HandSoldering" V 5150 7910 50  0001 C CNN
F 3 "http://katalog.we-online.de/pbs/datasheet/742792093.pdf" H 5220 7910 50  0001 C CNN
F 4 "Wurth Electronics Inc" H 5220 7910 60  0001 C CNN "MFG"
F 5 "742792093" H 5220 7910 60  0001 C CNN "MFG_PN"
F 6 "732-1609-1-ND" H 5220 7910 60  0001 C CNN "DK_PN"
	1    5220 7910
	1    0    0    -1  
$EndComp
$Comp
L R R2
U 1 1 59DAE1E8
P 5770 7910
F 0 "R2" V 5850 7910 50  0000 C CNN
F 1 "0" V 5770 7910 50  0000 C CNN
F 2 "Resistors_SMD:R_0805_HandSoldering" V 5700 7910 50  0001 C CNN
F 3 "" H 5770 7910 50  0000 C CNN
F 4 "Yageo" V 5770 7910 60  0001 C CNN "MFG"
F 5 "RC0805JR-070RL" V 5770 7910 60  0001 C CNN "MFG_PN"
F 6 "311-0.0ARCT-ND" V 5770 7910 60  0001 C CNN "DK_PN"
	1    5770 7910
	1    0    0    1   
$EndComp
NoConn ~ 8080 5560
$Comp
L TEST TP_GND1
U 1 1 59DCE3D2
P 7800 9170
F 0 "TP_GND1" H 7800 9470 50  0000 C BNN
F 1 "TEST" H 7800 9420 50  0000 C CNN
F 2 "OSU_SIM:Keystone_5019" H 7800 9170 50  0001 C CNN
F 3 "" H 7800 9170 50  0001 C CNN
	1    7800 9170
	1    0    0    -1  
$EndComp
$Comp
L TEST TP_GND2
U 1 1 59DCEB5B
P 8350 9170
F 0 "TP_GND2" H 8350 9470 50  0000 C BNN
F 1 "TEST" H 8350 9420 50  0000 C CNN
F 2 "OSU_SIM:Keystone_5019" H 8350 9170 50  0001 C CNN
F 3 "" H 8350 9170 50  0001 C CNN
	1    8350 9170
	1    0    0    -1  
$EndComp
$Comp
L GND #PWR05
U 1 1 59DCEE78
P 7800 9270
F 0 "#PWR05" H 7800 9020 50  0001 C CNN
F 1 "GND" H 7800 9120 50  0000 C CNN
F 2 "" H 7800 9270 50  0000 C CNN
F 3 "" H 7800 9270 50  0000 C CNN
	1    7800 9270
	1    0    0    -1  
$EndComp
$Comp
L GND #PWR06
U 1 1 59C58CDF
P 4610 1960
F 0 "#PWR06" H 4610 1710 50  0001 C CNN
F 1 "GND" H 4610 1810 50  0000 C CNN
F 2 "" H 4610 1960 50  0000 C CNN
F 3 "" H 4610 1960 50  0000 C CNN
	1    4610 1960
	1    0    0    -1  
$EndComp
$Comp
L GND #PWR07
U 1 1 59CAEAA8
P 3280 1960
F 0 "#PWR07" H 3280 1710 50  0001 C CNN
F 1 "GND" H 3280 1810 50  0000 C CNN
F 2 "" H 3280 1960 50  0000 C CNN
F 3 "" H 3280 1960 50  0000 C CNN
	1    3280 1960
	1    0    0    -1  
$EndComp
$Comp
L GND #PWR08
U 1 1 59CAE7C4
P 1980 1960
F 0 "#PWR08" H 1980 1710 50  0001 C CNN
F 1 "GND" H 1980 1810 50  0000 C CNN
F 2 "" H 1980 1960 50  0000 C CNN
F 3 "" H 1980 1960 50  0000 C CNN
	1    1980 1960
	1    0    0    -1  
$EndComp
Text Label 13920 3110 1    60   ~ 0
PULSE_OUT
$Comp
L TEST TP_PULSE_OUT1
U 1 1 5B5E30A7
P 13920 2680
F 0 "TP_PULSE_OUT1" H 13920 2980 50  0000 C BNN
F 1 "PULSE_OUT" H 13920 2930 50  0000 C CNN
F 2 "OSU_SIM:Keystone_5019" H 13920 2680 50  0001 C CNN
F 3 "" H 13920 2680 50  0001 C CNN
	1    13920 2680
	1    0    0    -1  
$EndComp
Text Label 15130 6050 2    60   ~ 0
EX1
Text Label 15130 6150 2    60   ~ 0
EX2
Text Label 15130 6250 2    60   ~ 0
EX3
Text Label 15130 6350 2    60   ~ 0
EX4
Text Label 15130 6450 2    60   ~ 0
EX5
Text Label 15130 6550 2    60   ~ 0
EX6
Text Label 15130 6650 2    60   ~ 0
EX7
Text Label 15130 6750 2    60   ~ 0
EX8
$Comp
L SMA SER_CLK1
U 1 1 5B5ECB01
P 14450 1540
F 0 "SER_CLK1" H 14250 1340 60  0000 C CNN
F 1 "SMA" H 14650 1340 60  0000 C CNN
F 2 "OSU_SIM:SMA_TE" H 14450 1540 60  0001 C CNN
F 3 "http://www.te.com/commerce/DocumentDelivery/DDEController?Action=srchrtrv&DocNm=1814832&DocType=Customer+Drawing&DocLang=English" H 14450 1540 60  0001 C CNN
F 4 "TE Connectivity AMP Connectors" H 14450 1540 60  0001 C CNN "MFG"
F 5 "5-1814832-1" H 14450 1540 60  0001 C CNN "MFG_PN"
F 6 "A97594-ND" H 14450 1540 60  0001 C CNN "DK_PN"
	1    14450 1540
	1    0    0    -1  
$EndComp
Text Label 15000 1140 2    60   ~ 0
SER_CLK
$Comp
L GND #PWR09
U 1 1 5B5ECAEA
P 14450 1940
F 0 "#PWR09" H 14450 1690 50  0001 C CNN
F 1 "GND" H 14450 1790 50  0000 C CNN
F 2 "" H 14450 1940 50  0000 C CNN
F 3 "" H 14450 1940 50  0000 C CNN
	1    14450 1940
	1    0    0    -1  
$EndComp
$Comp
L SMA CLK1
U 1 1 59D46E66
P 13170 1540
F 0 "CLK1" H 12970 1340 60  0000 C CNN
F 1 "SMA" H 13370 1340 60  0000 C CNN
F 2 "OSU_SIM:SMA_TE" H 13170 1540 60  0001 C CNN
F 3 "http://www.te.com/commerce/DocumentDelivery/DDEController?Action=srchrtrv&DocNm=1814832&DocType=Customer+Drawing&DocLang=English" H 13170 1540 60  0001 C CNN
F 4 "TE Connectivity AMP Connectors" H 13170 1540 60  0001 C CNN "MFG"
F 5 "5-1814832-1" H 13170 1540 60  0001 C CNN "MFG_PN"
F 6 "A97594-ND" H 13170 1540 60  0001 C CNN "DK_PN"
	1    13170 1540
	1    0    0    -1  
$EndComp
Text Label 13720 1140 2    60   ~ 0
CLK
$Comp
L GND #PWR010
U 1 1 59C59810
P 13170 1940
F 0 "#PWR010" H 13170 1690 50  0001 C CNN
F 1 "GND" H 13170 1790 50  0000 C CNN
F 2 "" H 13170 1940 50  0000 C CNN
F 3 "" H 13170 1940 50  0000 C CNN
	1    13170 1940
	1    0    0    -1  
$EndComp
NoConn ~ 13080 4550
NoConn ~ 13080 4150
NoConn ~ 13080 6550
NoConn ~ 13080 6650
NoConn ~ 13080 6750
$Comp
L TEST TP_GND3
U 1 1 5B602AD7
P 13350 2680
F 0 "TP_GND3" H 13350 2980 50  0000 C BNN
F 1 "TEST" H 13350 2930 50  0000 C CNN
F 2 "OSU_SIM:Keystone_5019" H 13350 2680 50  0001 C CNN
F 3 "" H 13350 2680 50  0001 C CNN
	1    13350 2680
	1    0    0    -1  
$EndComp
NoConn ~ 4780 6460
Text Label 5080 4560 2    60   ~ 0
EX1
Text Label 5080 4660 2    60   ~ 0
EX2
Text Label 5080 4760 2    60   ~ 0
EX3
Text Label 5080 4860 2    60   ~ 0
EX4
Text Label 5080 4960 2    60   ~ 0
EX5
Text Label 5080 5060 2    60   ~ 0
EX6
Text Label 5080 5160 2    60   ~ 0
EX7
Text Label 5080 5260 2    60   ~ 0
EX8
NoConn ~ 2880 7460
NoConn ~ 4780 7460
NoConn ~ 2880 6460
NoConn ~ 2880 6360
NoConn ~ 2880 6260
NoConn ~ 2880 6160
NoConn ~ 2880 6060
NoConn ~ 2880 5760
NoConn ~ 2880 5660
NoConn ~ 6180 4560
NoConn ~ 6180 4660
NoConn ~ 6180 4760
NoConn ~ 6180 4960
NoConn ~ 6180 5060
NoConn ~ 6180 5160
NoConn ~ 6180 5260
NoConn ~ 6180 5360
NoConn ~ 6180 5760
NoConn ~ 6180 5660
NoConn ~ 8080 4560
NoConn ~ 8080 4660
NoConn ~ 8080 4760
NoConn ~ 8080 4960
NoConn ~ 8080 5060
NoConn ~ 8080 5160
NoConn ~ 8080 5260
NoConn ~ 8080 5360
NoConn ~ 8080 5460
Text Label 2150 5160 0    60   ~ 0
PAD_RST_PD
Text Label 2150 5260 0    60   ~ 0
PAD_RST_SPAD
$Comp
L SMA IB_EXT1
U 1 1 5B61875C
P 10170 1540
F 0 "IB_EXT1" H 9970 1340 60  0000 C CNN
F 1 "SMA" H 10370 1340 60  0000 C CNN
F 2 "OSU_SIM:SMA_TE" H 10170 1540 60  0001 C CNN
F 3 "http://www.te.com/commerce/DocumentDelivery/DDEController?Action=srchrtrv&DocNm=1814832&DocType=Customer+Drawing&DocLang=English" H 10170 1540 60  0001 C CNN
F 4 "TE Connectivity AMP Connectors" H 10170 1540 60  0001 C CNN "MFG"
F 5 "5-1814832-1" H 10170 1540 60  0001 C CNN "MFG_PN"
F 6 "A97594-ND" H 10170 1540 60  0001 C CNN "DK_PN"
	1    10170 1540
	1    0    0    -1  
$EndComp
Text Label 10530 1150 2    60   ~ 0
IB_EXT
$Comp
L GND #PWR011
U 1 1 5B5FD330
P 13350 2780
F 0 "#PWR011" H 13350 2530 50  0001 C CNN
F 1 "GND" H 13350 2630 50  0000 C CNN
F 2 "" H 13350 2780 50  0001 C CNN
F 3 "" H 13350 2780 50  0001 C CNN
	1    13350 2780
	1    0    0    -1  
$EndComp
NoConn ~ 4780 6260
NoConn ~ 4780 6360
NoConn ~ 4780 7360
NoConn ~ 4780 7260
NoConn ~ 4780 7160
NoConn ~ 4780 7060
NoConn ~ 4780 6960
NoConn ~ 4780 6860
NoConn ~ 4780 6760
NoConn ~ 4780 6660
$Comp
L SMA VBIAS1
U 1 1 5BA2DDB6
P 11560 1540
F 0 "VBIAS1" H 11360 1340 60  0000 C CNN
F 1 "SMA" H 11760 1340 60  0000 C CNN
F 2 "OSU_SIM:SMA_TE" H 11560 1540 60  0001 C CNN
F 3 "http://www.te.com/commerce/DocumentDelivery/DDEController?Action=srchrtrv&DocNm=1814832&DocType=Customer+Drawing&DocLang=English" H 11560 1540 60  0001 C CNN
F 4 "TE Connectivity AMP Connectors" H 11560 1540 60  0001 C CNN "MFG"
F 5 "5-1814832-1" H 11560 1540 60  0001 C CNN "MFG_PN"
F 6 "A97594-ND" H 11560 1540 60  0001 C CNN "DK_PN"
	1    11560 1540
	1    0    0    -1  
$EndComp
Text Label 11920 1150 2    60   ~ 0
VBIAS
$Comp
L SMA GND1
U 1 1 5BA2E3D4
P 8700 1550
F 0 "GND1" H 8500 1350 60  0000 C CNN
F 1 "SMA" H 8900 1350 60  0000 C CNN
F 2 "OSU_SIM:SMA_TE" H 8700 1550 60  0001 C CNN
F 3 "http://www.te.com/commerce/DocumentDelivery/DDEController?Action=srchrtrv&DocNm=1814832&DocType=Customer+Drawing&DocLang=English" H 8700 1550 60  0001 C CNN
F 4 "TE Connectivity AMP Connectors" H 8700 1550 60  0001 C CNN "MFG"
F 5 "5-1814832-1" H 8700 1550 60  0001 C CNN "MFG_PN"
F 6 "A97594-ND" H 8700 1550 60  0001 C CNN "DK_PN"
	1    8700 1550
	1    0    0    -1  
$EndComp
Text Label 9250 1150 2    60   ~ 0
GND
$Comp
L GND #PWR012
U 1 1 5BA2E3DB
P 8700 1950
F 0 "#PWR012" H 8700 1700 50  0001 C CNN
F 1 "GND" H 8700 1800 50  0000 C CNN
F 2 "" H 8700 1950 50  0000 C CNN
F 3 "" H 8700 1950 50  0000 C CNN
	1    8700 1950
	1    0    0    -1  
$EndComp
Text Label 5120 6560 2    60   ~ 0
VCC
Text Label 5930 6560 0    60   ~ 0
VCC
Text Label 8090 6560 0    60   ~ 0
DGND
$Comp
L C_Small C1
U 1 1 5BA340C1
P 4630 9020
F 0 "C1" H 4640 9090 50  0000 L CNN
F 1 "4.7u" H 4640 8940 50  0000 L CNN
F 2 "Capacitors_SMD:C_1206_HandSoldering" H 4630 9020 50  0001 C CNN
F 3 "https://product.tdk.com/info/en/documents/chara_sheet/C3216X7R1E475K160AC.pdf" H 4630 9020 50  0001 C CNN
F 4 "TDK" H 4630 9020 60  0001 C CNN "MFG"
F 5 "C3216X7R1E475K160AC" H 4630 9020 60  0001 C CNN "MFG_PN"
F 6 "445-1606-2-ND" H 4630 9020 60  0001 C CNN "DK_PN"
	1    4630 9020
	1    0    0    -1  
$EndComp
$Comp
L C_Small C9
U 1 1 5BA357DF
P 10180 2860
F 0 "C9" H 10190 2930 50  0000 L CNN
F 1 "0.1u" H 10190 2780 50  0000 L CNN
F 2 "Capacitors_SMD:C_0805_HandSoldering" H 10180 2860 50  0001 C CNN
F 3 "http://www.yageo.com/documents/recent/UPY-GPHC_X7R_6.3V-to-50V_18.pdf" H 10180 2860 50  0001 C CNN
F 4 "Yageo" H 10180 2860 60  0001 C CNN "MFG"
F 5 "CC0805KRX7R7BB104" H 10180 2860 60  0001 C CNN "MFG_PN"
F 6 "311-1142-1-ND" H 10180 2860 60  0001 C CNN "DK_PN"
	1    10180 2860
	1    0    0    -1  
$EndComp
$Comp
L GND #PWR013
U 1 1 5BA35801
P 10100 3140
F 0 "#PWR013" H 10100 2890 50  0001 C CNN
F 1 "GND" H 10100 2990 50  0000 C CNN
F 2 "" H 10100 3140 50  0000 C CNN
F 3 "" H 10100 3140 50  0000 C CNN
	1    10100 3140
	1    0    0    -1  
$EndComp
Text Label 4630 8820 0    60   ~ 0
VCC
Text Label 9930 2660 0    60   ~ 0
IB_EXT
$Comp
L GND #PWR014
U 1 1 5D040D1B
P 10880 3650
F 0 "#PWR014" H 10880 3400 50  0001 C CNN
F 1 "GND" H 10880 3500 50  0000 C CNN
F 2 "" H 10880 3650 50  0000 C CNN
F 3 "" H 10880 3650 50  0000 C CNN
	1    10880 3650
	1    0    0    -1  
$EndComp
Text Label 11220 3750 0    60   ~ 0
DVDD
Text Label 11220 3850 0    60   ~ 0
SER_CLK
Text Label 11220 3950 0    60   ~ 0
CLK
Text Label 11220 4050 0    60   ~ 0
SYS_RST
Text Label 11040 4150 0    60   ~ 0
RST_SPAD_OUT
Text Label 11040 4250 0    60   ~ 0
RST_PD_OUT
Text Label 11040 4350 0    60   ~ 0
HSMODE_OUT
Text Label 11040 4450 0    60   ~ 0
FRAME_FLAG_OUT
Text Label 11040 4550 0    60   ~ 0
DATA_HOLD_OUT
Text Label 11040 4650 0    60   ~ 0
COUNTER_EN_OUT
Text Label 11040 4750 0    60   ~ 0
PAD_COUNTER_EN
Text Label 11040 4850 0    60   ~ 0
PAD_DATA_HOLD
Text Label 11040 4950 0    60   ~ 0
PAD_HSMODE
Text Label 11040 5050 0    60   ~ 0
PAD_RST_PD
Text Label 11040 5150 0    60   ~ 0
PAD_RST_SPAD
Text Label 10410 4230 3    60   ~ 0
DVDD
$Comp
L PLCC_84 X1
U 1 1 59C48FCF
P 12330 5700
F 0 "X1" H 11930 8000 50  0000 C CNN
F 1 "PLCC_84" H 12030 3400 50  0000 C CNN
F 2 "OSU_SIM:PLCC_84POS" H 12330 5700 50  0001 C CNN
F 3 "http://multimedia.3m.com/mws/media/358813O/3mtm-chip-carrier-sockets-lp-4-row-t-h-8400-series-ts2148.pdf" H 12330 5700 50  0001 C CNN
F 4 "3M" H 12330 5700 60  0001 C CNN "MFG"
F 5 "8484-11B1-RK-TP" H 12330 5700 60  0001 C CNN "MFG_PN"
F 6 "3M8411B1-ND" H 12330 5700 60  0001 C CNN "DK_PN"
	1    12330 5700
	1    0    0    -1  
$EndComp
Text Label 11130 5850 0    60   ~ 0
IB_EXT
Text Label 11130 5950 0    60   ~ 0
VBIAS
Text Label 11130 6050 0    60   ~ 0
GND
NoConn ~ 11580 6550
Text Label 11200 6650 0    60   ~ 0
GND
NoConn ~ 11580 6850
NoConn ~ 11580 7250
NoConn ~ 11580 7350
Text Label 13320 3650 2    60   ~ 0
GND
NoConn ~ 13080 4050
Text Label 13640 4650 2    60   ~ 0
SCAN_IN
Text Label 13640 4750 2    60   ~ 0
SOUT_BUFF
Text Label 13640 4850 2    60   ~ 0
Global_mux_sel
Text Label 13640 4950 2    60   ~ 0
SCAN_CLKB
Text Label 13640 5050 2    60   ~ 0
SCAN_CLK
NoConn ~ 13080 5150
Text Label 13320 5250 2    60   ~ 0
GND
NoConn ~ 13080 5550
Text Label 13320 5650 2    60   ~ 0
GND
NoConn ~ 13080 6450
NoConn ~ 13080 6350
NoConn ~ 13080 6250
Text Label 13440 7450 2    60   ~ 0
PULSE_OUT
Text Label 13440 7550 2    60   ~ 0
DATA_LOAD
Text Label 13440 7650 2    60   ~ 0
VALID_OUT
Text Label 13440 7750 2    60   ~ 0
DATA_OUT
NoConn ~ 11580 5250
NoConn ~ 11580 5350
$Comp
L GND #PWR015
U 1 1 5D08B171
P 10140 4760
F 0 "#PWR015" H 10140 4510 50  0001 C CNN
F 1 "GND" H 10140 4610 50  0000 C CNN
F 2 "" H 10140 4760 50  0000 C CNN
F 3 "" H 10140 4760 50  0000 C CNN
	1    10140 4760
	1    0    0    -1  
$EndComp
Text Label 10140 4230 3    60   ~ 0
VDD
$Comp
L CONN_01X08 P_OUT1
U 1 1 5D08CB7F
P 14720 4390
F 0 "P_OUT1" H 14720 4840 50  0000 C CNN
F 1 "CONN_01X08" V 14820 4390 50  0000 C CNN
F 2 "Pin_Headers:Pin_Header_Straight_1x08_Pitch2.54mm" H 14720 4390 50  0001 C CNN
F 3 "https://cdn.harwin.com/pdfs/M20-999.pdf" H 14720 4390 50  0001 C CNN
F 4 "Harwin" H 14720 4390 60  0001 C CNN "MFG"
F 5 "M20-9991646" H 14720 4390 60  0001 C CNN "MFG_PN"
F 6 "952-3305-ND" H 14720 4390 60  0001 C CNN "DK_PN"
	1    14720 4390
	-1   0    0    -1  
$EndComp
Text Label 15510 4040 2    60   ~ 0
RST_SPAD_OUT
Text Label 15510 4140 2    60   ~ 0
RST_PD_OUT
Text Label 15510 4240 2    60   ~ 0
HSMODE_OUT
Text Label 15650 4340 2    60   ~ 0
FRAME_FLAG_OUT
Text Label 15650 4440 2    60   ~ 0
DATA_HOLD_OUT
Text Label 15650 4540 2    60   ~ 0
COUNTER_EN_OUT
Text Label 15510 5030 2    60   ~ 0
DATA_OUT
Text Label 15510 5130 2    60   ~ 0
VALID_OUT
Text Label 15510 5230 2    60   ~ 0
SYS_RST
Text Label 15650 5330 2    60   ~ 0
PAD_COUNTER_EN
Text Label 15650 5430 2    60   ~ 0
PAD_DATA_HOLD
Text Label 15650 5530 2    60   ~ 0
PAD_HSMODE
Text Label 15510 5630 2    60   ~ 0
PAD_RST_PD
Text Label 15510 5730 2    60   ~ 0
PAD_RST_SPAD
Text Label 15510 4640 2    60   ~ 0
PULSE_OUT
Text Label 15250 4740 2    60   ~ 0
GND
$Comp
L GND #PWR016
U 1 1 5D095981
P 11560 1940
F 0 "#PWR016" H 11560 1690 50  0001 C CNN
F 1 "GND" H 11560 1790 50  0000 C CNN
F 2 "" H 11560 1940 50  0001 C CNN
F 3 "" H 11560 1940 50  0001 C CNN
	1    11560 1940
	1    0    0    -1  
$EndComp
$Comp
L GND #PWR017
U 1 1 5D095CA5
P 10170 1940
F 0 "#PWR017" H 10170 1690 50  0001 C CNN
F 1 "GND" H 10170 1790 50  0000 C CNN
F 2 "" H 10170 1940 50  0001 C CNN
F 3 "" H 10170 1940 50  0001 C CNN
	1    10170 1940
	1    0    0    -1  
$EndComp
$Comp
L GND #PWR018
U 1 1 5D0976C1
P 7340 1950
F 0 "#PWR018" H 7340 1700 50  0001 C CNN
F 1 "GND" H 7340 1800 50  0000 C CNN
F 2 "" H 7340 1950 50  0000 C CNN
F 3 "" H 7340 1950 50  0000 C CNN
	1    7340 1950
	1    0    0    -1  
$EndComp
$Sheet
S 4320 2670 790  420 
U 5D0A0830
F0 "LDOset2" 60
F1 "LDOset.sch" 60
F2 "VIN" I L 4320 2780 60 
F3 "GND" B L 4320 2980 60 
F4 "VOUT" O R 5110 2880 60 
$EndSheet
Text Label 4110 2780 0    60   ~ 0
VDC_LDO
Text Label 4110 2980 0    60   ~ 0
GND
Text Label 5310 2880 2    60   ~ 0
VDD
$Sheet
S 5720 2670 790  420 
U 5D0A60AA
F0 "LDOset3" 60
F1 "LDOset.sch" 60
F2 "VIN" I L 5720 2780 60 
F3 "GND" B L 5720 2980 60 
F4 "VOUT" O R 6510 2880 60 
$EndSheet
Text Label 5510 2780 0    60   ~ 0
VDC_LDO
Text Label 5510 2980 0    60   ~ 0
GND
Text Label 6710 2880 2    60   ~ 0
DVDD
Text Label 6430 1150 2    60   ~ 0
DVDD
$Comp
L SMA DVDD1
U 1 1 5D0A6E65
P 5880 1550
F 0 "DVDD1" H 5680 1350 60  0000 C CNN
F 1 "SMA" H 6080 1350 60  0000 C CNN
F 2 "OSU_SIM:SMA_TE" H 5880 1550 60  0001 C CNN
F 3 "http://www.te.com/commerce/DocumentDelivery/DDEController?Action=srchrtrv&DocNm=1814832&DocType=Customer+Drawing&DocLang=English" H 5880 1550 60  0001 C CNN
F 4 "TE Connectivity AMP Connectors" H 5880 1550 60  0001 C CNN "MFG"
F 5 "5-1814832-1" H 5880 1550 60  0001 C CNN "MFG_PN"
F 6 "A97594-ND" H 5880 1550 60  0001 C CNN "DK_PN"
	1    5880 1550
	1    0    0    -1  
$EndComp
$Comp
L GND #PWR019
U 1 1 5D0A6E6B
P 5880 1950
F 0 "#PWR019" H 5880 1700 50  0001 C CNN
F 1 "GND" H 5880 1800 50  0000 C CNN
F 2 "" H 5880 1950 50  0000 C CNN
F 3 "" H 5880 1950 50  0000 C CNN
	1    5880 1950
	1    0    0    -1  
$EndComp
$Sheet
S 2970 2670 790  420 
U 5D0A9F2D
F0 "LDOset1" 60
F1 "LDOset.sch" 60
F2 "VIN" I L 2970 2780 60 
F3 "GND" B L 2970 2980 60 
F4 "VOUT" O R 3760 2880 60 
$EndSheet
Text Label 2760 2780 0    60   ~ 0
VDC_LDO
Text Label 2760 2980 0    60   ~ 0
GND
Text Label 3960 2880 2    60   ~ 0
VCC
$Sheet
S 7060 2670 790  420 
U 5D0ABD21
F0 "LDOset4" 60
F1 "LDOset.sch" 60
F2 "VIN" I L 7060 2780 60 
F3 "GND" B L 7060 2980 60 
F4 "VOUT" O R 7850 2880 60 
$EndSheet
Text Label 6850 2780 0    60   ~ 0
VDC_LDO
Text Label 6850 2980 0    60   ~ 0
GND
Text Label 8050 2880 2    60   ~ 0
VREF
Text Label 8490 5660 2    60   ~ 0
SER_CLK
Text Label 8490 5760 2    60   ~ 0
CLK
NoConn ~ 2880 5860
NoConn ~ 2880 5960
Text Label 15130 7060 2    60   ~ 0
EX9
Text Label 15130 7160 2    60   ~ 0
EX10
Text Label 15130 7260 2    60   ~ 0
EX11
Text Label 15130 7360 2    60   ~ 0
EX12
Text Label 15130 7460 2    60   ~ 0
EX13
Text Label 15130 7560 2    60   ~ 0
EX14
Text Label 15130 7660 2    60   ~ 0
EX15
Text Label 15130 7760 2    60   ~ 0
EX16
$Comp
L OPAL_KELLY_REAL J3
U 2 1 59C45790
P 7130 5810
F 0 "J3" H 7130 5710 50  0000 C CNN
F 1 "OPAL_KELLY_REAL" H 7130 5910 50  0000 C CNN
F 2 "OSU_SIM:OPAL_KELLY" H 7130 5810 50  0001 C CNN
F 3 "DOCUMENTATION" H 7130 5810 50  0001 C CNN
	2    7130 5810
	1    0    0    -1  
$EndComp
Text Label 5980 5860 0    60   ~ 0
EX9
Text Label 5980 5960 0    60   ~ 0
EX11
Text Label 8330 5860 2    60   ~ 0
EX10
Text Label 8330 5960 2    60   ~ 0
EX12
Text Label 8330 6060 2    60   ~ 0
EX14
Text Label 5980 6060 0    60   ~ 0
EX13
Text Label 5980 6160 0    60   ~ 0
EX15
Text Label 8330 6160 2    60   ~ 0
EX16
NoConn ~ 4780 6160
NoConn ~ 4780 6060
NoConn ~ 4780 5960
NoConn ~ 4780 5860
NoConn ~ 4780 5760
NoConn ~ 4780 5660
NoConn ~ 4780 5460
NoConn ~ 4780 5360
Text Label 2150 5360 0    60   ~ 0
DATA_LOAD
Text Label 2380 6660 0    60   ~ 0
SCAN_IN
$Comp
L CONN_01X02 P2
U 1 1 5D0BEFAC
P 14720 3570
F 0 "P2" H 14720 3720 50  0000 C CNN
F 1 "CONN_01X02" V 14820 3570 50  0000 C CNN
F 2 "Pin_Headers:Pin_Header_Straight_1x02_Pitch2.54mm" H 14720 3570 50  0001 C CNN
F 3 "https://cdn.harwin.com/pdfs/M20-999.pdf" H 14720 3570 50  0001 C CNN
F 4 "Harwin" H 14720 3570 60  0001 C CNN "MFG"
F 5 "M20-9991646" H 14720 3570 60  0001 C CNN "MFG_PN"
F 6 "952-3305-ND" H 14720 3570 60  0001 C CNN "DK_PN"
	1    14720 3570
	-1   0    0    1   
$EndComp
Text Label 15370 3520 2    60   ~ 0
SOUT_BUFF
Text Label 15370 3620 2    60   ~ 0
SCAN_IN
Text Label 2380 6760 0    60   ~ 0
SCAN_CLK
Text Label 2380 6860 0    60   ~ 0
SCAN_CLKB
Text Label 2000 6960 0    60   ~ 0
Global_mux_sel_FPGA
Text Label 10920 6120 2    60   ~ 0
Global_mux_sel
Text Label 14540 3110 1    60   ~ 0
CATHODE_MON
$Comp
L TEST TP_CA_MON1
U 1 1 5D0C583E
P 14540 2680
F 0 "TP_CA_MON1" H 14540 2980 50  0000 C BNN
F 1 "CATHODE_MON" H 14540 2930 50  0000 C CNN
F 2 "OSU_SIM:Keystone_5019" H 14540 2680 50  0001 C CNN
F 3 "" H 14540 2680 50  0001 C CNN
	1    14540 2680
	1    0    0    -1  
$EndComp
NoConn ~ 2880 7060
NoConn ~ 2880 7160
NoConn ~ 2880 7260
NoConn ~ 2880 7360
NoConn ~ 2880 4160
Text Label 8320 4460 2    60   ~ 0
DGND
NoConn ~ 6180 6260
$Comp
L CONN_01X08 P_DIG1
U 1 1 5D0CE98C
P 14720 5380
F 0 "P_DIG1" H 14720 5830 50  0000 C CNN
F 1 "CONN_01X08" V 14820 5380 50  0000 C CNN
F 2 "Pin_Headers:Pin_Header_Straight_1x08_Pitch2.54mm" H 14720 5380 50  0001 C CNN
F 3 "https://cdn.harwin.com/pdfs/M20-999.pdf" H 14720 5380 50  0001 C CNN
F 4 "Harwin" H 14720 5380 60  0001 C CNN "MFG"
F 5 "M20-9991646" H 14720 5380 60  0001 C CNN "MFG_PN"
F 6 "952-3305-ND" H 14720 5380 60  0001 C CNN "DK_PN"
	1    14720 5380
	-1   0    0    -1  
$EndComp
$Comp
L CONN_01X08 P_EX1
U 1 1 5D0CEDFE
P 14720 6400
F 0 "P_EX1" H 14720 6850 50  0000 C CNN
F 1 "CONN_01X08" V 14820 6400 50  0000 C CNN
F 2 "Pin_Headers:Pin_Header_Straight_1x08_Pitch2.54mm" H 14720 6400 50  0001 C CNN
F 3 "https://cdn.harwin.com/pdfs/M20-999.pdf" H 14720 6400 50  0001 C CNN
F 4 "Harwin" H 14720 6400 60  0001 C CNN "MFG"
F 5 "M20-9991646" H 14720 6400 60  0001 C CNN "MFG_PN"
F 6 "952-3305-ND" H 14720 6400 60  0001 C CNN "DK_PN"
	1    14720 6400
	-1   0    0    -1  
$EndComp
$Comp
L CONN_01X08 P_EX2
U 1 1 5D0CF0B8
P 14720 7410
F 0 "P_EX2" H 14720 7860 50  0000 C CNN
F 1 "CONN_01X08" V 14820 7410 50  0000 C CNN
F 2 "Pin_Headers:Pin_Header_Straight_1x08_Pitch2.54mm" H 14720 7410 50  0001 C CNN
F 3 "https://cdn.harwin.com/pdfs/M20-999.pdf" H 14720 7410 50  0001 C CNN
F 4 "Harwin" H 14720 7410 60  0001 C CNN "MFG"
F 5 "M20-9991646" H 14720 7410 60  0001 C CNN "MFG_PN"
F 6 "952-3305-ND" H 14720 7410 60  0001 C CNN "DK_PN"
	1    14720 7410
	-1   0    0    -1  
$EndComp
$Comp
L C_Small C6
U 1 1 5D0DEFA0
P 9930 2860
F 0 "C6" H 9940 2930 50  0000 L CNN
F 1 "4.7u" H 9940 2780 50  0000 L CNN
F 2 "Capacitors_SMD:C_1206_HandSoldering" H 9930 2860 50  0001 C CNN
F 3 "https://product.tdk.com/info/en/documents/chara_sheet/C3216X7R1E475K160AC.pdf" H 9930 2860 50  0001 C CNN
F 4 "TDK" H 9930 2860 60  0001 C CNN "MFG"
F 5 "C3216X7R1E475K160AC" H 9930 2860 60  0001 C CNN "MFG_PN"
F 6 "445-1606-2-ND" H 9930 2860 60  0001 C CNN "DK_PN"
	1    9930 2860
	1    0    0    -1  
$EndComp
$Comp
L C_Small C7
U 1 1 5D0DFFD8
P 10410 4580
F 0 "C7" H 10420 4650 50  0000 L CNN
F 1 "0.1uF" H 10420 4500 50  0000 L CNN
F 2 "Capacitors_SMD:C_0805_HandSoldering" H 10410 4580 50  0001 C CNN
F 3 "http://www.yageo.com/documents/recent/UPY-GPHC_X7R_6.3V-to-50V_18.pdf" H 10410 4580 50  0001 C CNN
F 4 "Yageo" H 10410 4580 60  0001 C CNN "MFG"
F 5 "CC0805KRX7R7BB104" H 10410 4580 60  0001 C CNN "MFG_PN"
F 6 "311-1142-1-ND" H 10410 4580 60  0001 C CNN "DK_PN"
	1    10410 4580
	1    0    0    -1  
$EndComp
$Comp
L C_Small C8
U 1 1 5D0E0140
P 10140 4580
F 0 "C8" H 10150 4650 50  0000 L CNN
F 1 "0.1uF" H 10150 4500 50  0000 L CNN
F 2 "Capacitors_SMD:C_0805_HandSoldering" H 10140 4580 50  0001 C CNN
F 3 "http://www.yageo.com/documents/recent/UPY-GPHC_X7R_6.3V-to-50V_18.pdf" H 10140 4580 50  0001 C CNN
F 4 "Yageo" H 10140 4580 60  0001 C CNN "MFG"
F 5 "CC0805KRX7R7BB104" H 10140 4580 60  0001 C CNN "MFG_PN"
F 6 "311-1142-1-ND" H 10140 4580 60  0001 C CNN "DK_PN"
	1    10140 4580
	1    0    0    -1  
$EndComp
$Comp
L C_Small C2
U 1 1 5D0E0342
P 4880 9020
F 0 "C2" H 4890 9090 50  0000 L CNN
F 1 "0.1u" H 4890 8940 50  0000 L CNN
F 2 "Capacitors_SMD:C_0805_HandSoldering" H 4880 9020 50  0001 C CNN
F 3 "http://www.yageo.com/documents/recent/UPY-GPHC_X7R_6.3V-to-50V_18.pdf" H 4880 9020 50  0001 C CNN
F 4 "Yageo" H 4880 9020 60  0001 C CNN "MFG"
F 5 "CC0805KRX7R7BB104" H 4880 9020 60  0001 C CNN "MFG_PN"
F 6 "311-1142-1-ND" H 4880 9020 60  0001 C CNN "DK_PN"
	1    4880 9020
	1    0    0    -1  
$EndComp
$Comp
L C_Small C3
U 1 1 5D0E2EC6
P 5130 9020
F 0 "C3" H 5140 9090 50  0000 L CNN
F 1 "1n" H 5140 8940 50  0000 L CNN
F 2 "Capacitors_SMD:C_0805_HandSoldering" H 5130 9020 50  0001 C CNN
F 3 "http://www.yageo.com/documents/recent/UPY-GPHC_X7R_6.3V-to-50V_18.pdf" H 5130 9020 50  0001 C CNN
F 4 "Yageo" H 5130 9020 60  0001 C CNN "MFG"
F 5 "CC0805JRX7R9BB102" H 5130 9020 60  0001 C CNN "MFG_PN"
F 6 "311-4270-2-ND" H 5130 9020 60  0001 C CNN "DK_PN"
	1    5130 9020
	1    0    0    -1  
$EndComp
$Comp
L SMA CATHODE_MON1
U 1 1 5D0FBF16
P 10080 9010
F 0 "CATHODE_MON1" H 9880 8810 60  0000 C CNN
F 1 "SMA" H 10280 8810 60  0000 C CNN
F 2 "OSU_SIM:SMA_TE" H 10080 9010 60  0001 C CNN
F 3 "http://www.te.com/commerce/DocumentDelivery/DDEController?Action=srchrtrv&DocNm=1814832&DocType=Customer+Drawing&DocLang=English" H 10080 9010 60  0001 C CNN
F 4 "TE Connectivity AMP Connectors" H 10080 9010 60  0001 C CNN "MFG"
F 5 "5-1814832-1" H 10080 9010 60  0001 C CNN "MFG_PN"
F 6 "A97594-ND" H 10080 9010 60  0001 C CNN "DK_PN"
	1    10080 9010
	1    0    0    -1  
$EndComp
Text Label 10630 8610 2    60   ~ 0
CATHODE_MON
$Comp
L GND #PWR020
U 1 1 5D0FBF1D
P 10080 9410
F 0 "#PWR020" H 10080 9160 50  0001 C CNN
F 1 "GND" H 10080 9260 50  0000 C CNN
F 2 "" H 10080 9410 50  0000 C CNN
F 3 "" H 10080 9410 50  0000 C CNN
	1    10080 9410
	1    0    0    -1  
$EndComp
Text Label 2010 2480 3    60   ~ 0
VDC
Wire Wire Line
	10880 3650 11580 3650
Wire Wire Line
	11130 5450 11580 5450
Wire Wire Line
	11130 5550 11580 5550
Wire Wire Line
	11040 5650 11580 5650
Wire Wire Line
	7040 1450 6840 1450
Wire Wire Line
	6840 1450 6840 1850
Wire Wire Line
	6840 1650 7040 1650
Wire Wire Line
	7640 1650 7890 1650
Wire Wire Line
	7890 1850 7890 1450
Wire Wire Line
	7890 1450 7640 1450
Wire Wire Line
	6840 1850 7890 1850
Connection ~ 7890 1650
Connection ~ 6840 1650
Wire Wire Line
	7340 1950 7340 1850
Connection ~ 7340 1850
Wire Wire Line
	4310 1460 4110 1460
Wire Wire Line
	4110 1460 4110 1860
Wire Wire Line
	4110 1660 4310 1660
Wire Wire Line
	4910 1660 5160 1660
Wire Wire Line
	5160 1860 5160 1460
Wire Wire Line
	5160 1460 4910 1460
Wire Wire Line
	4110 1860 5160 1860
Connection ~ 5160 1660
Connection ~ 4110 1660
Wire Wire Line
	4610 1260 4610 1160
Wire Wire Line
	4610 1160 5160 1160
Wire Wire Line
	7340 1250 7340 1150
Wire Wire Line
	7340 1150 7890 1150
Wire Wire Line
	2880 6760 2380 6760
Wire Wire Line
	2150 4760 2880 4760
Wire Wire Line
	2880 6860 2380 6860
Wire Wire Line
	2150 4860 2880 4860
Wire Wire Line
	2150 4960 2880 4960
Wire Wire Line
	2150 5060 2880 5060
Wire Wire Line
	1680 1460 1480 1460
Wire Wire Line
	1480 1460 1480 1860
Wire Wire Line
	1480 1660 1680 1660
Wire Wire Line
	2280 1660 2530 1660
Wire Wire Line
	2530 1860 2530 1460
Wire Wire Line
	2530 1460 2280 1460
Wire Wire Line
	1480 1860 2530 1860
Connection ~ 2530 1660
Connection ~ 1480 1660
Wire Wire Line
	2980 1460 2780 1460
Wire Wire Line
	2780 1460 2780 1860
Wire Wire Line
	2780 1660 2980 1660
Wire Wire Line
	3580 1660 3830 1660
Wire Wire Line
	3830 1860 3830 1460
Wire Wire Line
	3830 1460 3580 1460
Wire Wire Line
	2780 1860 3830 1860
Connection ~ 3830 1660
Connection ~ 2780 1660
Wire Wire Line
	3280 1260 3280 1160
Wire Wire Line
	3280 1160 3830 1160
Wire Wire Line
	2530 3860 2880 3860
Wire Wire Line
	2730 4060 2880 4060
Wire Wire Line
	2730 3860 2730 4060
Connection ~ 2730 3860
Wire Wire Line
	2880 3960 2730 3960
Connection ~ 2730 3960
Wire Wire Line
	2380 5560 2880 5560
Wire Wire Line
	2880 6560 2380 6560
Wire Wire Line
	4780 7760 5770 7760
Wire Wire Line
	4930 7760 4930 7660
Wire Wire Line
	4930 7660 4780 7660
Wire Wire Line
	4780 5560 5150 5560
Wire Wire Line
	4780 4460 4880 4460
Wire Wire Line
	4880 4460 4880 3860
Connection ~ 4880 3860
Wire Wire Line
	6650 9190 6650 9580
Wire Wire Line
	7130 9180 7130 9570
Wire Wire Line
	2000 6960 2880 6960
Wire Wire Line
	2880 6660 2380 6660
Wire Wire Line
	5230 3860 5230 3910
Connection ~ 5230 3860
Wire Wire Line
	2380 6560 2380 5560
Wire Wire Line
	1980 1260 1980 860 
Wire Wire Line
	4780 3860 6180 3860
Wire Wire Line
	5220 7760 5220 7810
Connection ~ 5220 7760
Wire Wire Line
	5220 8010 5220 8110
Wire Wire Line
	5220 8110 5770 8110
Wire Wire Line
	5770 8110 5770 8060
Wire Wire Line
	5370 8110 5370 8160
Connection ~ 5370 8110
Wire Wire Line
	5580 3860 5580 3960
Wire Wire Line
	5580 4210 5580 4160
Wire Wire Line
	7800 9170 7800 9270
Connection ~ 7800 9220
Wire Wire Line
	8350 9170 8350 9220
Connection ~ 4610 1860
Wire Wire Line
	4610 1960 4610 1860
Connection ~ 3280 1860
Wire Wire Line
	3280 1960 3280 1860
Connection ~ 1980 1860
Wire Wire Line
	1980 1960 1980 1860
Wire Wire Line
	13920 2680 13920 3110
Wire Wire Line
	14920 6050 15130 6050
Wire Wire Line
	14920 6150 15130 6150
Wire Wire Line
	14920 6250 15130 6250
Wire Wire Line
	14920 6350 15130 6350
Wire Wire Line
	14920 6450 15130 6450
Wire Wire Line
	14920 6550 15130 6550
Wire Wire Line
	14920 6650 15130 6650
Wire Wire Line
	14920 6750 15130 6750
Wire Wire Line
	14920 4040 15510 4040
Wire Wire Line
	14920 4140 15510 4140
Wire Wire Line
	14920 4240 15510 4240
Wire Wire Line
	14920 4340 15650 4340
Wire Wire Line
	14920 4440 15650 4440
Wire Wire Line
	14920 4540 15650 4540
Wire Wire Line
	14450 1140 15000 1140
Wire Wire Line
	14450 1240 14450 1140
Connection ~ 14450 1840
Wire Wire Line
	14450 1940 14450 1840
Connection ~ 13950 1640
Connection ~ 15000 1640
Wire Wire Line
	13950 1840 15000 1840
Wire Wire Line
	15000 1440 14750 1440
Wire Wire Line
	15000 1840 15000 1440
Wire Wire Line
	14750 1640 15000 1640
Wire Wire Line
	13950 1640 14150 1640
Wire Wire Line
	13950 1440 13950 1840
Wire Wire Line
	14150 1440 13950 1440
Wire Wire Line
	13170 1140 13720 1140
Wire Wire Line
	13170 1240 13170 1140
Connection ~ 13170 1840
Wire Wire Line
	13170 1940 13170 1840
Connection ~ 12670 1640
Connection ~ 13720 1640
Wire Wire Line
	12670 1840 13720 1840
Wire Wire Line
	13720 1440 13470 1440
Wire Wire Line
	13720 1840 13720 1440
Wire Wire Line
	13470 1640 13720 1640
Wire Wire Line
	12670 1640 12870 1640
Wire Wire Line
	12670 1440 12670 1840
Wire Wire Line
	12870 1440 12670 1440
Wire Wire Line
	11130 5750 11580 5750
Wire Wire Line
	10410 4230 10410 4480
Wire Wire Line
	10410 4680 10410 4760
Wire Wire Line
	8350 9220 7800 9220
Wire Wire Line
	13350 2680 13350 2780
Wire Wire Line
	5080 4560 4780 4560
Wire Wire Line
	5080 4660 4780 4660
Wire Wire Line
	5080 4760 4780 4760
Wire Wire Line
	5080 4860 4780 4860
Wire Wire Line
	5080 4960 4780 4960
Wire Wire Line
	5080 5060 4780 5060
Wire Wire Line
	5080 5160 4780 5160
Wire Wire Line
	5080 5260 4780 5260
Wire Wire Line
	2150 5160 2880 5160
Wire Wire Line
	2150 5260 2880 5260
Wire Wire Line
	9870 1440 9670 1440
Wire Wire Line
	9670 1440 9670 1840
Wire Wire Line
	9670 1640 9870 1640
Wire Wire Line
	10470 1640 10720 1640
Wire Wire Line
	10720 1840 10720 1440
Wire Wire Line
	10720 1440 10470 1440
Wire Wire Line
	9670 1840 10720 1840
Connection ~ 10720 1640
Connection ~ 9670 1640
Wire Wire Line
	10170 1940 10170 1840
Connection ~ 10170 1840
Wire Wire Line
	10170 1240 10170 1150
Wire Wire Line
	10170 1150 10530 1150
Connection ~ 4930 7760
Wire Wire Line
	5150 5560 5150 6560
Wire Wire Line
	11260 1440 11060 1440
Wire Wire Line
	11060 1440 11060 1840
Wire Wire Line
	11060 1640 11260 1640
Wire Wire Line
	11860 1640 12110 1640
Wire Wire Line
	12110 1840 12110 1440
Wire Wire Line
	12110 1440 11860 1440
Wire Wire Line
	11060 1840 12110 1840
Connection ~ 12110 1640
Connection ~ 11060 1640
Wire Wire Line
	11560 1940 11560 1840
Connection ~ 11560 1840
Wire Wire Line
	11560 1240 11560 1150
Wire Wire Line
	11560 1150 11920 1150
Wire Wire Line
	8700 1150 9250 1150
Wire Wire Line
	8700 1250 8700 1150
Connection ~ 8700 1850
Wire Wire Line
	8700 1950 8700 1850
Connection ~ 8200 1650
Connection ~ 9250 1650
Wire Wire Line
	8200 1850 9250 1850
Wire Wire Line
	9250 1450 9000 1450
Wire Wire Line
	9250 1850 9250 1450
Wire Wire Line
	9000 1650 9250 1650
Wire Wire Line
	8200 1650 8400 1650
Wire Wire Line
	8200 1450 8200 1850
Wire Wire Line
	8400 1450 8200 1450
Wire Wire Line
	6180 6560 5890 6560
Wire Wire Line
	5890 5560 6180 5560
Wire Wire Line
	5890 6560 5890 5560
Connection ~ 5580 3860
Wire Wire Line
	6180 4460 6010 4460
Wire Wire Line
	6010 4460 6010 3860
Connection ~ 6010 3860
Wire Wire Line
	8080 7660 8260 7660
Wire Wire Line
	8260 6560 8260 7760
Wire Wire Line
	8260 7760 8080 7760
Wire Wire Line
	8260 6560 8080 6560
Connection ~ 8260 7660
Wire Wire Line
	4630 8920 4630 8820
Wire Wire Line
	5130 8820 5130 8920
Wire Wire Line
	4630 8820 5130 8820
Wire Wire Line
	4880 8920 4880 8820
Connection ~ 4880 8820
Wire Wire Line
	4630 9120 4630 9240
Wire Wire Line
	4630 9240 5130 9240
Wire Wire Line
	5130 9240 5130 9120
Wire Wire Line
	4880 9120 4880 9240
Connection ~ 4880 9240
Wire Wire Line
	9930 2760 9930 2660
Wire Wire Line
	10180 2760 10180 2660
Wire Wire Line
	9930 2960 9930 3080
Wire Wire Line
	10180 2960 10180 3080
Wire Wire Line
	10100 3140 10100 3080
Connection ~ 10100 3080
Wire Wire Line
	5150 6560 4780 6560
Wire Wire Line
	11220 3750 11580 3750
Wire Wire Line
	11220 3850 11580 3850
Wire Wire Line
	11220 3950 11580 3950
Wire Wire Line
	11220 4050 11580 4050
Wire Wire Line
	11040 4150 11580 4150
Wire Wire Line
	11040 4250 11580 4250
Wire Wire Line
	11040 4350 11580 4350
Wire Wire Line
	11040 4450 11580 4450
Wire Wire Line
	11580 4550 11040 4550
Wire Wire Line
	11580 4650 11040 4650
Wire Wire Line
	11580 4750 11040 4750
Wire Wire Line
	11580 4850 11040 4850
Wire Wire Line
	11580 4950 11040 4950
Wire Wire Line
	11580 5050 11040 5050
Wire Wire Line
	11580 5150 11040 5150
Wire Wire Line
	11580 5850 11130 5850
Wire Wire Line
	11580 5950 11130 5950
Wire Wire Line
	11130 6050 11580 6050
Wire Wire Line
	11580 6150 11430 6150
Wire Wire Line
	11430 6050 11430 6450
Connection ~ 11430 6050
Wire Wire Line
	11430 6250 11580 6250
Connection ~ 11430 6150
Wire Wire Line
	11430 6350 11580 6350
Connection ~ 11430 6250
Wire Wire Line
	11430 6450 11580 6450
Connection ~ 11430 6350
Wire Wire Line
	11200 6650 11580 6650
Wire Wire Line
	11430 6750 11580 6750
Connection ~ 11430 6650
Wire Wire Line
	11430 7150 11580 7150
Wire Wire Line
	11430 6950 11580 6950
Wire Wire Line
	11430 6650 11430 7750
Wire Wire Line
	11580 7050 11430 7050
Connection ~ 11430 7050
Wire Wire Line
	11430 7550 11580 7550
Wire Wire Line
	11430 7450 11580 7450
Connection ~ 11430 6950
Connection ~ 11430 6750
Connection ~ 11430 7150
Connection ~ 11430 7450
Wire Wire Line
	11430 7650 11580 7650
Wire Wire Line
	11430 7750 11580 7750
Wire Wire Line
	13080 3650 13320 3650
Wire Wire Line
	13080 3750 13320 3750
Wire Wire Line
	13080 3850 13320 3850
Wire Wire Line
	13320 3950 13080 3950
Wire Wire Line
	13320 3650 13320 3950
Wire Wire Line
	13080 4250 13320 4250
Wire Wire Line
	13320 4250 13320 4450
Wire Wire Line
	13320 4350 13080 4350
Wire Wire Line
	13320 4450 13080 4450
Connection ~ 13320 4350
Wire Wire Line
	13080 4650 13640 4650
Wire Wire Line
	13080 4750 13640 4750
Wire Wire Line
	13080 4850 13640 4850
Wire Wire Line
	13080 4950 13640 4950
Wire Wire Line
	13080 5050 13640 5050
Wire Wire Line
	13080 5250 13320 5250
Wire Wire Line
	13320 5250 13320 5450
Wire Wire Line
	13320 5350 13080 5350
Wire Wire Line
	13320 5450 13080 5450
Connection ~ 13320 5350
Wire Wire Line
	13080 5650 13320 5650
Wire Wire Line
	13320 5650 13320 7350
Wire Wire Line
	13320 6150 13080 6150
Wire Wire Line
	13080 6050 13320 6050
Connection ~ 13320 6050
Wire Wire Line
	13080 5750 13320 5750
Connection ~ 13320 5750
Wire Wire Line
	13080 5850 13320 5850
Connection ~ 13320 5850
Wire Wire Line
	13080 5950 13320 5950
Connection ~ 13320 5950
Wire Wire Line
	13320 6850 13080 6850
Wire Wire Line
	13320 6950 13080 6950
Wire Wire Line
	13320 7050 13080 7050
Connection ~ 13320 6950
Wire Wire Line
	13320 7150 13080 7150
Connection ~ 13320 7050
Wire Wire Line
	13320 7250 13080 7250
Connection ~ 13320 7150
Wire Wire Line
	13320 7350 13080 7350
Connection ~ 13320 7250
Connection ~ 13320 6850
Connection ~ 13320 6150
Wire Wire Line
	13080 7450 13440 7450
Wire Wire Line
	13080 7550 13440 7550
Wire Wire Line
	13080 7650 13440 7650
Wire Wire Line
	13080 7750 13440 7750
Wire Wire Line
	14920 5030 15510 5030
Wire Wire Line
	14920 5130 15510 5130
Wire Wire Line
	14920 5230 15510 5230
Wire Wire Line
	14920 5330 15650 5330
Wire Wire Line
	14920 5430 15650 5430
Wire Wire Line
	14920 5530 15650 5530
Wire Wire Line
	14920 5730 15510 5730
Wire Wire Line
	14920 5630 15510 5630
Wire Wire Line
	14920 4740 15250 4740
Wire Wire Line
	4110 2780 4320 2780
Wire Wire Line
	4110 2980 4320 2980
Wire Wire Line
	5110 2880 5310 2880
Wire Wire Line
	5510 2780 5720 2780
Wire Wire Line
	5510 2980 5720 2980
Wire Wire Line
	6510 2880 6710 2880
Wire Wire Line
	5580 1450 5380 1450
Wire Wire Line
	5380 1450 5380 1850
Wire Wire Line
	5380 1650 5580 1650
Wire Wire Line
	6180 1650 6430 1650
Wire Wire Line
	6430 1850 6430 1450
Wire Wire Line
	6430 1450 6180 1450
Wire Wire Line
	5380 1850 6430 1850
Connection ~ 6430 1650
Connection ~ 5380 1650
Wire Wire Line
	5880 1250 5880 1150
Wire Wire Line
	5880 1150 6430 1150
Connection ~ 5880 1850
Wire Wire Line
	5880 1950 5880 1850
Wire Wire Line
	2760 2780 2970 2780
Wire Wire Line
	2760 2980 2970 2980
Wire Wire Line
	3760 2880 3960 2880
Wire Wire Line
	6850 2780 7060 2780
Wire Wire Line
	6850 2980 7060 2980
Wire Wire Line
	7850 2880 8050 2880
Wire Wire Line
	8080 5660 8490 5660
Wire Wire Line
	8080 5760 8490 5760
Wire Wire Line
	14920 7060 15130 7060
Wire Wire Line
	14920 7160 15130 7160
Wire Wire Line
	14920 7260 15130 7260
Wire Wire Line
	14920 7360 15130 7360
Wire Wire Line
	14920 7460 15130 7460
Wire Wire Line
	14920 7560 15130 7560
Wire Wire Line
	14920 7660 15130 7660
Wire Wire Line
	14920 7760 15130 7760
Wire Wire Line
	6180 5860 5980 5860
Wire Wire Line
	6180 5960 5980 5960
Wire Wire Line
	6180 6060 5980 6060
Wire Wire Line
	6180 6160 5980 6160
Wire Wire Line
	8080 5860 8330 5860
Wire Wire Line
	8080 5960 8330 5960
Wire Wire Line
	8080 6060 8330 6060
Wire Wire Line
	8080 6160 8330 6160
Wire Wire Line
	2880 5360 2150 5360
Wire Wire Line
	14920 4640 15510 4640
Wire Wire Line
	14920 3620 15370 3620
Wire Wire Line
	14920 3520 15370 3520
Wire Wire Line
	14540 2680 14540 3110
Wire Wire Line
	8080 4460 8320 4460
Connection ~ 11430 7550
Connection ~ 11430 7650
Connection ~ 13320 3850
Connection ~ 13320 3750
Wire Wire Line
	10140 4480 10140 4230
Wire Wire Line
	10140 4760 10140 4680
Wire Wire Line
	10180 2660 9930 2660
Wire Wire Line
	10180 3080 9930 3080
Wire Wire Line
	10080 8610 10630 8610
Wire Wire Line
	10080 8710 10080 8610
Connection ~ 10080 9310
Wire Wire Line
	10080 9410 10080 9310
Connection ~ 9580 9110
Connection ~ 10630 9110
Wire Wire Line
	9580 9310 10630 9310
Wire Wire Line
	10630 8910 10380 8910
Wire Wire Line
	10630 9310 10630 8910
Wire Wire Line
	10380 9110 10630 9110
Wire Wire Line
	9580 9110 9780 9110
Wire Wire Line
	9580 8910 9580 9310
Wire Wire Line
	9780 8910 9580 8910
Wire Wire Line
	2010 2480 2010 2700
Wire Wire Line
	2010 2900 2010 3320
Text Label 2010 3320 1    60   ~ 0
VDC_LDO
$Comp
L Ferrite_Bead_Small L3
U 1 1 5D106F6A
P 2010 2800
F 0 "L3" H 2085 2850 50  0000 L CNN
F 1 "Ferrite_Bead_Small" H 2085 2750 50  0001 L CNN
F 2 "Capacitors_SMD:C_0805_HandSoldering" V 1940 2800 50  0001 C CNN
F 3 "http://katalog.we-online.de/pbs/datasheet/742792093.pdf" H 2010 2800 50  0001 C CNN
F 4 "Wurth Electronics Inc" H 2010 2800 60  0001 C CNN "MFG"
F 5 "742792093" H 2010 2800 60  0001 C CNN "MFG_PN"
F 6 "732-1609-1-ND" H 2010 2800 60  0001 C CNN "DK_PN"
	1    2010 2800
	1    0    0    -1  
$EndComp
Text Label 4630 9230 0    60   ~ 0
DGND
Text Label 13320 4250 2    60   ~ 0
GND
Text Label 1640 2480 3    60   ~ 0
VDC
Wire Wire Line
	1640 2480 1640 2700
Wire Wire Line
	1640 2900 1640 3320
Text Label 1640 3320 1    60   ~ 0
VDC_LDO
$Comp
L Ferrite_Bead_Small L5
U 1 1 5D114647
P 1640 2800
F 0 "L5" H 1715 2850 50  0000 L CNN
F 1 "Ferrite_Bead_Small" H 1715 2750 50  0001 L CNN
F 2 "Capacitors_SMD:C_0805_HandSoldering" V 1570 2800 50  0001 C CNN
F 3 "http://katalog.we-online.de/pbs/datasheet/742792093.pdf" H 1640 2800 50  0001 C CNN
F 4 "Wurth Electronics Inc" H 1640 2800 60  0001 C CNN "MFG"
F 5 "742792093" H 1640 2800 60  0001 C CNN "MFG_PN"
F 6 "732-1609-1-ND" H 1640 2800 60  0001 C CNN "DK_PN"
	1    1640 2800
	1    0    0    -1  
$EndComp
Text Label 1250 2470 3    60   ~ 0
VDC
Wire Wire Line
	1250 2470 1250 2690
Wire Wire Line
	1250 2890 1250 3310
Text Label 1250 3310 1    60   ~ 0
VDC_LDO
$Comp
L Ferrite_Bead_Small L4
U 1 1 5D11484E
P 1250 2790
F 0 "L4" H 1325 2840 50  0000 L CNN
F 1 "Ferrite_Bead_Small" H 1325 2740 50  0001 L CNN
F 2 "Capacitors_SMD:C_0805_HandSoldering" V 1180 2790 50  0001 C CNN
F 3 "http://katalog.we-online.de/pbs/datasheet/742792093.pdf" H 1250 2790 50  0001 C CNN
F 4 "Wurth Electronics Inc" H 1250 2790 60  0001 C CNN "MFG"
F 5 "742792093" H 1250 2790 60  0001 C CNN "MFG_PN"
F 6 "732-1609-1-ND" H 1250 2790 60  0001 C CNN "DK_PN"
	1    1250 2790
	1    0    0    -1  
$EndComp
$Comp
L C_Small C4
U 1 1 5D116783
P 1320 3980
F 0 "C4" H 1330 4050 50  0000 L CNN
F 1 "4.7u" H 1330 3900 50  0000 L CNN
F 2 "Capacitors_SMD:C_1206_HandSoldering" H 1320 3980 50  0001 C CNN
F 3 "https://product.tdk.com/info/en/documents/chara_sheet/C3216X7R1E475K160AC.pdf" H 1320 3980 50  0001 C CNN
F 4 "TDK" H 1320 3980 60  0001 C CNN "MFG"
F 5 "C3216X7R1E475K160AC" H 1320 3980 60  0001 C CNN "MFG_PN"
F 6 "445-1606-2-ND" H 1320 3980 60  0001 C CNN "DK_PN"
	1    1320 3980
	1    0    0    -1  
$EndComp
Text Label 1320 3780 0    60   ~ 0
VDC
$Comp
L C_Small C5
U 1 1 5D11678D
P 1570 3980
F 0 "C5" H 1580 4050 50  0000 L CNN
F 1 "0.1u" H 1580 3900 50  0000 L CNN
F 2 "Capacitors_SMD:C_0805_HandSoldering" H 1570 3980 50  0001 C CNN
F 3 "http://www.yageo.com/documents/recent/UPY-GPHC_X7R_6.3V-to-50V_18.pdf" H 1570 3980 50  0001 C CNN
F 4 "Yageo" H 1570 3980 60  0001 C CNN "MFG"
F 5 "CC0805KRX7R7BB104" H 1570 3980 60  0001 C CNN "MFG_PN"
F 6 "311-1142-1-ND" H 1570 3980 60  0001 C CNN "DK_PN"
	1    1570 3980
	1    0    0    -1  
$EndComp
$Comp
L C_Small C10
U 1 1 5D116796
P 1820 3980
F 0 "C10" H 1830 4050 50  0000 L CNN
F 1 "1n" H 1830 3900 50  0000 L CNN
F 2 "Capacitors_SMD:C_0805_HandSoldering" H 1820 3980 50  0001 C CNN
F 3 "http://www.yageo.com/documents/recent/UPY-GPHC_X7R_6.3V-to-50V_18.pdf" H 1820 3980 50  0001 C CNN
F 4 "Yageo" H 1820 3980 60  0001 C CNN "MFG"
F 5 "CC0805JRX7R9BB102" H 1820 3980 60  0001 C CNN "MFG_PN"
F 6 "311-4270-2-ND" H 1820 3980 60  0001 C CNN "DK_PN"
	1    1820 3980
	1    0    0    -1  
$EndComp
Wire Wire Line
	1320 3880 1320 3780
Wire Wire Line
	1820 3780 1820 3880
Wire Wire Line
	1320 3780 1820 3780
Wire Wire Line
	1570 3880 1570 3780
Connection ~ 1570 3780
Wire Wire Line
	1320 4080 1320 4200
Wire Wire Line
	1320 4200 1820 4200
Wire Wire Line
	1820 4200 1820 4080
Wire Wire Line
	1570 4080 1570 4200
Connection ~ 1570 4200
Text Label 1320 4190 0    60   ~ 0
GND
$Comp
L CONN_01X03 P1
U 1 1 5D11B0EF
P 10040 6120
F 0 "P1" H 10040 6320 50  0000 C CNN
F 1 "CONN_01X03" V 10140 6120 50  0000 C CNN
F 2 "Pin_Headers:Pin_Header_Straight_1x03_Pitch2.54mm" H 10040 6120 50  0001 C CNN
F 3 "https://cdn.harwin.com/pdfs/M20-999.pdf" H 10040 6120 50  0001 C CNN
F 4 "Harwin" H 10040 6120 60  0001 C CNN "MFG"
F 5 "M20-9991646" H 10040 6120 60  0001 C CNN "MFG_PN"
F 6 "952-3305-ND" H 10040 6120 60  0001 C CNN "DK_PN"
	1    10040 6120
	-1   0    0    1   
$EndComp
Wire Wire Line
	10240 6120 10920 6120
Wire Wire Line
	10240 6020 10920 6020
Wire Wire Line
	10240 6220 10920 6220
Text Label 10920 6020 2    60   ~ 0
DVDD
Text Label 10920 6220 2    60   ~ 0
GND
$Comp
L R R11
U 1 1 5D11CCD6
P 10060 6760
F 0 "R11" V 10140 6760 50  0000 C CNN
F 1 "0" V 10060 6760 50  0000 C CNN
F 2 "Resistors_SMD:R_0805_HandSoldering" V 9990 6760 50  0001 C CNN
F 3 "" H 10060 6760 50  0000 C CNN
F 4 "Yageo" V 10060 6760 60  0001 C CNN "MFG"
F 5 "RC0805JR-070RL" V 10060 6760 60  0001 C CNN "MFG_PN"
F 6 "311-0.0ARCT-ND" V 10060 6760 60  0001 C CNN "DK_PN"
	1    10060 6760
	0    -1   1    0   
$EndComp
Wire Wire Line
	8990 6760 9910 6760
Wire Wire Line
	10210 6760 10960 6760
Text Label 8990 6760 0    60   ~ 0
Global_mux_sel_FPGA
Text Label 10960 6760 2    60   ~ 0
Global_mux_sel
$EndSCHEMATC
