G04 #@! TF.FileFunction,Legend,Bot*
%FSLAX46Y46*%
G04 Gerber Fmt 4.6, Leading zero omitted, Abs format (unit mm)*
G04 Created by KiCad (PCBNEW 4.0.5-e0-6337~49~ubuntu14.04.1) date Fri Jun 21 22:19:21 2019*
%MOMM*%
%LPD*%
G01*
G04 APERTURE LIST*
%ADD10C,0.100000*%
%ADD11C,0.120000*%
%ADD12C,0.150000*%
G04 APERTURE END LIST*
D10*
D11*
X166362000Y-64858000D02*
X165362000Y-64858000D01*
X165362000Y-63158000D02*
X166362000Y-63158000D01*
X166362000Y-61302000D02*
X165362000Y-61302000D01*
X165362000Y-59602000D02*
X166362000Y-59602000D01*
X112688000Y-89400000D02*
X112688000Y-88400000D01*
X114388000Y-88400000D02*
X114388000Y-89400000D01*
X106164000Y-92544000D02*
X105164000Y-92544000D01*
X105164000Y-90844000D02*
X106164000Y-90844000D01*
X156630000Y-84574000D02*
X156630000Y-83574000D01*
X158330000Y-83574000D02*
X158330000Y-84574000D01*
X171362000Y-84574000D02*
X171362000Y-83574000D01*
X173062000Y-83574000D02*
X173062000Y-84574000D01*
X176648000Y-84674000D02*
X176648000Y-83474000D01*
X174888000Y-83474000D02*
X174888000Y-84674000D01*
X153298000Y-83474000D02*
X153298000Y-84674000D01*
X155058000Y-84674000D02*
X155058000Y-83474000D01*
X166862000Y-68838000D02*
X164862000Y-68838000D01*
X164862000Y-66798000D02*
X166862000Y-66798000D01*
D12*
X166028666Y-66115143D02*
X166076285Y-66162762D01*
X166219142Y-66210381D01*
X166314380Y-66210381D01*
X166457238Y-66162762D01*
X166552476Y-66067524D01*
X166600095Y-65972286D01*
X166647714Y-65781810D01*
X166647714Y-65638952D01*
X166600095Y-65448476D01*
X166552476Y-65353238D01*
X166457238Y-65258000D01*
X166314380Y-65210381D01*
X166219142Y-65210381D01*
X166076285Y-65258000D01*
X166028666Y-65305619D01*
X165647714Y-65305619D02*
X165600095Y-65258000D01*
X165504857Y-65210381D01*
X165266761Y-65210381D01*
X165171523Y-65258000D01*
X165123904Y-65305619D01*
X165076285Y-65400857D01*
X165076285Y-65496095D01*
X165123904Y-65638952D01*
X165695333Y-66210381D01*
X165076285Y-66210381D01*
X166028666Y-62559143D02*
X166076285Y-62606762D01*
X166219142Y-62654381D01*
X166314380Y-62654381D01*
X166457238Y-62606762D01*
X166552476Y-62511524D01*
X166600095Y-62416286D01*
X166647714Y-62225810D01*
X166647714Y-62082952D01*
X166600095Y-61892476D01*
X166552476Y-61797238D01*
X166457238Y-61702000D01*
X166314380Y-61654381D01*
X166219142Y-61654381D01*
X166076285Y-61702000D01*
X166028666Y-61749619D01*
X165695333Y-61654381D02*
X165076285Y-61654381D01*
X165409619Y-62035333D01*
X165266761Y-62035333D01*
X165171523Y-62082952D01*
X165123904Y-62130571D01*
X165076285Y-62225810D01*
X165076285Y-62463905D01*
X165123904Y-62559143D01*
X165171523Y-62606762D01*
X165266761Y-62654381D01*
X165552476Y-62654381D01*
X165647714Y-62606762D01*
X165695333Y-62559143D01*
X112145143Y-88733334D02*
X112192762Y-88685715D01*
X112240381Y-88542858D01*
X112240381Y-88447620D01*
X112192762Y-88304762D01*
X112097524Y-88209524D01*
X112002286Y-88161905D01*
X111811810Y-88114286D01*
X111668952Y-88114286D01*
X111478476Y-88161905D01*
X111383238Y-88209524D01*
X111288000Y-88304762D01*
X111240381Y-88447620D01*
X111240381Y-88542858D01*
X111288000Y-88685715D01*
X111335619Y-88733334D01*
X111240381Y-89066667D02*
X111240381Y-89733334D01*
X112240381Y-89304762D01*
X105830666Y-93801143D02*
X105878285Y-93848762D01*
X106021142Y-93896381D01*
X106116380Y-93896381D01*
X106259238Y-93848762D01*
X106354476Y-93753524D01*
X106402095Y-93658286D01*
X106449714Y-93467810D01*
X106449714Y-93324952D01*
X106402095Y-93134476D01*
X106354476Y-93039238D01*
X106259238Y-92944000D01*
X106116380Y-92896381D01*
X106021142Y-92896381D01*
X105878285Y-92944000D01*
X105830666Y-92991619D01*
X105259238Y-93324952D02*
X105354476Y-93277333D01*
X105402095Y-93229714D01*
X105449714Y-93134476D01*
X105449714Y-93086857D01*
X105402095Y-92991619D01*
X105354476Y-92944000D01*
X105259238Y-92896381D01*
X105068761Y-92896381D01*
X104973523Y-92944000D01*
X104925904Y-92991619D01*
X104878285Y-93086857D01*
X104878285Y-93134476D01*
X104925904Y-93229714D01*
X104973523Y-93277333D01*
X105068761Y-93324952D01*
X105259238Y-93324952D01*
X105354476Y-93372571D01*
X105402095Y-93420190D01*
X105449714Y-93515429D01*
X105449714Y-93705905D01*
X105402095Y-93801143D01*
X105354476Y-93848762D01*
X105259238Y-93896381D01*
X105068761Y-93896381D01*
X104973523Y-93848762D01*
X104925904Y-93801143D01*
X104878285Y-93705905D01*
X104878285Y-93515429D01*
X104925904Y-93420190D01*
X104973523Y-93372571D01*
X105068761Y-93324952D01*
X156182381Y-83907334D02*
X156182381Y-83431143D01*
X155182381Y-83431143D01*
X156182381Y-84764477D02*
X156182381Y-84193048D01*
X156182381Y-84478762D02*
X155182381Y-84478762D01*
X155325238Y-84383524D01*
X155420476Y-84288286D01*
X155468095Y-84193048D01*
X174315381Y-84034334D02*
X174315381Y-83558143D01*
X173315381Y-83558143D01*
X173410619Y-84320048D02*
X173363000Y-84367667D01*
X173315381Y-84462905D01*
X173315381Y-84701001D01*
X173363000Y-84796239D01*
X173410619Y-84843858D01*
X173505857Y-84891477D01*
X173601095Y-84891477D01*
X173743952Y-84843858D01*
X174315381Y-84272429D01*
X174315381Y-84891477D01*
X177871381Y-84034334D02*
X177395190Y-83701000D01*
X177871381Y-83462905D02*
X176871381Y-83462905D01*
X176871381Y-83843858D01*
X176919000Y-83939096D01*
X176966619Y-83986715D01*
X177061857Y-84034334D01*
X177204714Y-84034334D01*
X177299952Y-83986715D01*
X177347571Y-83939096D01*
X177395190Y-83843858D01*
X177395190Y-83462905D01*
X177871381Y-84986715D02*
X177871381Y-84415286D01*
X177871381Y-84701000D02*
X176871381Y-84701000D01*
X177014238Y-84605762D01*
X177109476Y-84510524D01*
X177157095Y-84415286D01*
X152979381Y-83907334D02*
X152503190Y-83574000D01*
X152979381Y-83335905D02*
X151979381Y-83335905D01*
X151979381Y-83716858D01*
X152027000Y-83812096D01*
X152074619Y-83859715D01*
X152169857Y-83907334D01*
X152312714Y-83907334D01*
X152407952Y-83859715D01*
X152455571Y-83812096D01*
X152503190Y-83716858D01*
X152503190Y-83335905D01*
X152074619Y-84288286D02*
X152027000Y-84335905D01*
X151979381Y-84431143D01*
X151979381Y-84669239D01*
X152027000Y-84764477D01*
X152074619Y-84812096D01*
X152169857Y-84859715D01*
X152265095Y-84859715D01*
X152407952Y-84812096D01*
X152979381Y-84240667D01*
X152979381Y-84859715D01*
X166028666Y-69925143D02*
X166076285Y-69972762D01*
X166219142Y-70020381D01*
X166314380Y-70020381D01*
X166457238Y-69972762D01*
X166552476Y-69877524D01*
X166600095Y-69782286D01*
X166647714Y-69591810D01*
X166647714Y-69448952D01*
X166600095Y-69258476D01*
X166552476Y-69163238D01*
X166457238Y-69068000D01*
X166314380Y-69020381D01*
X166219142Y-69020381D01*
X166076285Y-69068000D01*
X166028666Y-69115619D01*
X165076285Y-70020381D02*
X165647714Y-70020381D01*
X165362000Y-70020381D02*
X165362000Y-69020381D01*
X165457238Y-69163238D01*
X165552476Y-69258476D01*
X165647714Y-69306095D01*
M02*
