G04 #@! TF.FileFunction,Soldermask,Bot*
%FSLAX46Y46*%
G04 Gerber Fmt 4.6, Leading zero omitted, Abs format (unit mm)*
G04 Created by KiCad (PCBNEW 4.0.5-e0-6337~49~ubuntu14.04.1) date Fri Jun 21 22:19:21 2019*
%MOMM*%
%LPD*%
G01*
G04 APERTURE LIST*
%ADD10C,0.100000*%
%ADD11C,1.700000*%
%ADD12R,2.100000X2.100000*%
%ADD13O,2.100000X2.100000*%
%ADD14C,2.900000*%
%ADD15C,1.840000*%
%ADD16R,1.900000X1.650000*%
%ADD17R,1.650000X1.900000*%
%ADD18C,4.400000*%
%ADD19C,1.420000*%
%ADD20R,1.700000X1.900000*%
%ADD21R,2.400000X2.000000*%
%ADD22C,4.700000*%
G04 APERTURE END LIST*
D10*
D11*
X116078000Y-84074000D03*
X116078000Y-81534000D03*
X118618000Y-81534000D03*
X118618000Y-84074000D03*
X121158000Y-84074000D03*
X121158000Y-81534000D03*
X123698000Y-84074000D03*
X123698000Y-81534000D03*
X126238000Y-84074000D03*
X128778000Y-106934000D03*
X126238000Y-109474000D03*
X103378000Y-112014000D03*
X100838000Y-109474000D03*
X100838000Y-112014000D03*
X98298000Y-109474000D03*
X98298000Y-86614000D03*
X98298000Y-86614000D03*
X100838000Y-84074000D03*
X113538000Y-81534000D03*
X113538000Y-84074000D03*
X110998000Y-81534000D03*
X110998000Y-84074000D03*
X108458000Y-81534000D03*
X108458000Y-84074000D03*
X105918000Y-81534000D03*
X105918000Y-84074000D03*
X103378000Y-81534000D03*
X103378000Y-84074000D03*
X100838000Y-81534000D03*
X98298000Y-84074000D03*
X100838000Y-86614000D03*
X98298000Y-89154000D03*
X100838000Y-89154000D03*
X98298000Y-91694000D03*
X100838000Y-91694000D03*
X98298000Y-94234000D03*
X100838000Y-94234000D03*
X98298000Y-96774000D03*
X100838000Y-96774000D03*
X98298000Y-99314000D03*
X100838000Y-99314000D03*
X98298000Y-101854000D03*
X100838000Y-101854000D03*
X98298000Y-104394000D03*
X100838000Y-104394000D03*
X98298000Y-106934000D03*
X100838000Y-106934000D03*
X103378000Y-109474000D03*
X105918000Y-112014000D03*
X105918000Y-109474000D03*
X108458000Y-112014000D03*
X108458000Y-109474000D03*
X110998000Y-112014000D03*
X110998000Y-109474000D03*
X113538000Y-112014000D03*
X113538000Y-109474000D03*
X116078000Y-112014000D03*
X116078000Y-109474000D03*
X118618000Y-112014000D03*
X118618000Y-109474000D03*
X121158000Y-112014000D03*
X121158000Y-109474000D03*
X123698000Y-112014000D03*
X123698000Y-109474000D03*
X126238000Y-112014000D03*
X128778000Y-109474000D03*
X126238000Y-106934000D03*
X128778000Y-104394000D03*
X126238000Y-104394000D03*
X128778000Y-101854000D03*
X126238000Y-101854000D03*
X128778000Y-99314000D03*
X126238000Y-99314000D03*
X128778000Y-96774000D03*
X126238000Y-96774000D03*
X128778000Y-94234000D03*
X126238000Y-94234000D03*
X128778000Y-91694000D03*
X126238000Y-91694000D03*
X128778000Y-89154000D03*
X126238000Y-89154000D03*
X128778000Y-86614000D03*
X126238000Y-86614000D03*
X128778000Y-84074000D03*
X126238000Y-81534000D03*
D12*
X68580000Y-113284000D03*
D13*
X66040000Y-113284000D03*
D14*
X55118000Y-104648000D03*
X57658000Y-102108000D03*
X57658000Y-107188000D03*
X52578000Y-107188000D03*
X52578000Y-102108000D03*
D15*
X74168000Y-106172000D03*
X76708000Y-106172000D03*
X79248000Y-106172000D03*
X74168000Y-133350000D03*
X76708000Y-133350000D03*
X79248000Y-133350000D03*
D14*
X55118000Y-131826000D03*
X57658000Y-129286000D03*
X57658000Y-134366000D03*
X52578000Y-134366000D03*
X52578000Y-129286000D03*
D12*
X68580000Y-140462000D03*
D13*
X66040000Y-140462000D03*
D12*
X68580000Y-86106000D03*
D13*
X66040000Y-86106000D03*
D14*
X55118000Y-77470000D03*
X57658000Y-74930000D03*
X57658000Y-80010000D03*
X52578000Y-80010000D03*
X52578000Y-74930000D03*
D15*
X74168000Y-78994000D03*
X76708000Y-78994000D03*
X79248000Y-78994000D03*
X74168000Y-51816000D03*
X76708000Y-51816000D03*
X79248000Y-51816000D03*
D16*
X164612000Y-64008000D03*
X167112000Y-64008000D03*
X164612000Y-60452000D03*
X167112000Y-60452000D03*
D17*
X113538000Y-87650000D03*
X113538000Y-90150000D03*
D16*
X104414000Y-91694000D03*
X106914000Y-91694000D03*
D14*
X55118000Y-50292000D03*
X57658000Y-47752000D03*
X57658000Y-52832000D03*
X52578000Y-52832000D03*
X52578000Y-47752000D03*
D18*
X142710000Y-43680000D03*
X186710000Y-43680000D03*
X186710000Y-112680000D03*
D19*
X182680000Y-82920000D03*
X182680000Y-48440000D03*
X142680000Y-48440000D03*
X142680000Y-82920000D03*
D18*
X142710000Y-112680000D03*
D17*
X157480000Y-82824000D03*
X157480000Y-85324000D03*
X172212000Y-82824000D03*
X172212000Y-85324000D03*
D12*
X133731000Y-126619000D03*
D13*
X133731000Y-124079000D03*
D12*
X107442000Y-49022000D03*
D13*
X109982000Y-49022000D03*
X112522000Y-49022000D03*
X115062000Y-49022000D03*
X117602000Y-49022000D03*
X120142000Y-49022000D03*
X122682000Y-49022000D03*
X125222000Y-49022000D03*
D12*
X107442000Y-56134000D03*
D13*
X109982000Y-56134000D03*
X112522000Y-56134000D03*
X115062000Y-56134000D03*
X117602000Y-56134000D03*
X120142000Y-56134000D03*
X122682000Y-56134000D03*
X125222000Y-56134000D03*
D12*
X107442000Y-41910000D03*
D13*
X109982000Y-41910000D03*
X112522000Y-41910000D03*
X115062000Y-41910000D03*
X117602000Y-41910000D03*
X120142000Y-41910000D03*
X122682000Y-41910000D03*
X125222000Y-41910000D03*
D12*
X198882000Y-71628000D03*
D13*
X198882000Y-69088000D03*
X198882000Y-66548000D03*
X198882000Y-64008000D03*
X198882000Y-61468000D03*
X198882000Y-58928000D03*
X198882000Y-56388000D03*
X198882000Y-53848000D03*
D12*
X68580000Y-58928000D03*
D13*
X66040000Y-58928000D03*
D20*
X175768000Y-82724000D03*
X175768000Y-85424000D03*
X154178000Y-85424000D03*
X154178000Y-82724000D03*
D21*
X163862000Y-67818000D03*
X167862000Y-67818000D03*
D14*
X135128000Y-151892000D03*
X137668000Y-149352000D03*
X137668000Y-154432000D03*
X132588000Y-154432000D03*
X132588000Y-149352000D03*
X116459000Y-151892000D03*
X118999000Y-149352000D03*
X118999000Y-154432000D03*
X113919000Y-154432000D03*
X113919000Y-149352000D03*
X79502000Y-151892000D03*
X82042000Y-149352000D03*
X82042000Y-154432000D03*
X76962000Y-154432000D03*
X76962000Y-149352000D03*
X98044000Y-151892000D03*
X100584000Y-149352000D03*
X100584000Y-154432000D03*
X95504000Y-154432000D03*
X95504000Y-149352000D03*
X198882000Y-85090000D03*
X201422000Y-82550000D03*
X201422000Y-87630000D03*
X196342000Y-87630000D03*
X196342000Y-82550000D03*
X198882000Y-97409000D03*
X201422000Y-94869000D03*
X201422000Y-99949000D03*
X196342000Y-99949000D03*
X196342000Y-94869000D03*
X98044000Y-131826000D03*
X100584000Y-129286000D03*
X100584000Y-134366000D03*
X95504000Y-134366000D03*
X95504000Y-129286000D03*
D22*
X49276000Y-35052000D03*
X201676000Y-35052000D03*
X201676000Y-162052000D03*
X49276000Y-162052000D03*
D12*
X85852000Y-86106000D03*
D13*
X83312000Y-86106000D03*
X80772000Y-86106000D03*
M02*
